[start]
20180109	1100	20300101	1100	50700	999999	0	0	0	1	0	0	0	0	10000	0	0	0	0	0	0	0	0	0	
20170101	0	20300101	0	80200	999999	0	0	2	3	0	30	0	0	0	0	7500	0	2000	0	500	0	0	0		0	30	0	0	0	0	7500	0	2000	0	500	0	0	0		0	30	0	0	0	0	7500	0	2000	0	500	0	0	0	
20170101	0	20300101	0	80200	999999	0	0	3	3	0	75	0	0	0	0	7500	0	2000	0	500	0	0	0		0	75	0	0	0	0	7500	0	2000	0	500	0	0	0		0	75	0	0	0	0	7500	0	2000	0	500	0	0	0	
20210503	1100	20300101	0	120400	999999	0	0	0	3	-1	0	0	0	0	0	0	0	0	0	0	0	0	0		-1	0	0	0	0	0	0	0	0	0	0	0	0	0		62	0	0	0	0	0	7400	0	2100	0	500	0	0	0	【Limited】 Collect Li'l Cats only during this event!	0	0	5	fr	【Durée limitée】 P’tits Chats uniquement dans cet événement !	it	【Limitato】 Ottieni Mini Gatti solo in questo evento! 	de	(Begrenzt) Sammle nur während dieses Events kleine Katzen!	es	[Exclusivo] ¡Consigue Minigatos solo en este evento!	th	【จำกัด】 เก็บแมวเล็กเฉพาะในอีเวนต์นี้เท่านั้น!
20210416	1100	20300101	0	100400	999999	0	0	0	4	-1	0	0	0	0	0	0	0	0	0	0	0	0	0		-1	0	0	0	0	0	0	0	0	0	0	0	0	0		-1	0	0	0	0	0	0	0	0	0	0	0	0	0		63	0	300	0	0	0	5100	0	3500	0	1400	0	0	0	【Limited Event】 Special chance for XP and Catamins!	0	0	0	5	fr	【Durée limitée】 Chance spéciale d’obtenir XP et vichamines ! 	it	【Evento limitato】 Occasione speciale per XP e Vitamiao! 	de	(Begrenztes Event) Sonderchance auf XP und Katzamine! 	es	[Evento exclusivo] ¡Probabilidad de ganar XP y gataminas!	th	【อีเวนต์จำกัด】 โอกาสพิเศษที่จะได้รับ XP และวิตาเมี้ยว!
20220106	1100	20300101	1100	110100	999999	0	0	0	1	64	0	2300	0	10000	0	0	0	0	0	0	0	0	0		4	fr		it		de		es	
20230512	1100	20300101	0	120200	999999	0	0	1	4	-1	0	0	0	0	0	0	0	0	0	0	0	0	0		-1	0	0	0	0	0	0	0	0	0	0	0	0	0		-1	0	0	0	0	0	0	0	0	0	0	0	0	0		803	0	0	0	0	0	0	0	0	0	9500	0	500	0	Get a Guaranteed Uber or Legend Rare from the Legend Capsules!	0	0	0	5	fr	Un ultra rare ou un légendaire garanti dans les Chapsules légendaires !	it	Ottieni un'unità ultra rara o leggendaria garantita dalle Capsule leggendarie!	de	Garantiert eine mega- oder legendär seltene Katze aus legendären Kapseln!	es	¡Una unidad megarrara o legendaria garantizada en las bolas legendarias!	th	ได้อูเบอร์หรือแรร์ตำนานแบบรับประกันจากกาชาตำนาน!
20230512	1100	20300101	0	120200	999999	0	0	1	5	-1	0	0	0	0	0	0	0	0	0	0	0	0	0		-1	0	0	0	0	0	0	0	0	0	0	0	0	0		-1	0	0	0	0	0	0	0	0	0	0	0	0	0		-1	0	0	0	0	0	0	0	0	0	0	0	0	0		802	0	0	0	0	0	0	0	0	0	10000	0	0	0	Get an Uber Rare Cat!! 100% Uber drop Rate in the PLATINUM CAPSULES!	0	0	0	0	5	fr	Obtiens un ultra rare ! 100 % de chances avec les Chapsules platine !	it	Ottieni un gatto ultra raro! 100% possibilità di Ultra nelle CAPSULE PLATINO!	de	Hol dir eine megaseltene Katze!! 100-%-Chance in den PLATINKAPSELN!	es	¡Gana un gato megarraro! Garantizado en las BOLAS DE PLATINO.	th	รับแมวอูเบอร์แรร์ไปเลย!! อัตราดร็อปอูเบอร์ 100% ในกาชาแพลตินัม!
20230628	1100	20230630	1100	120400	999999	0	0	1	2	-1	0	0	0	0	0	0	0	0	0	0	0	0	0		708	150	0	16384	0	0	6970	0	2500	0	500	0	30	0	Colossus Slayer Hattori Hanzo joins the fight! ★ Tap banner for info!	0	5	fr	Hanzo Hattori, Fléau des colosses, rejoint la bataille ! ★ Touche pour info !	it	L'ammazzagiganti Hattori Hanzo scende in campo! ★ Tocca il banner!	de	Kolosstöter „Hattori Hanzo“ tritt dem Kampf bei! ★ Tippe auf das Banner!	es	¡El matacolosos Hattori Hanzo se une al combate! ★ ¡Toca para saber más!	th	มือสังหารยักษ์ ฮัตโตริ ฮันโซ มาร่วมต่อสู้ด้วย! ★ แตะแบนเนอร์เพื่อดูข้อมูลได้เลย!
20230628	1100	20230630	1100	120400	999999	0	0	1	3	-1	0	0	0	0	0	0	0	0	0	0	0	0	0		-1	0	0	0	0	0	0	0	0	0	0	0	0	0		625	150	0	16384	0	0	6970	0	2500	0	500	0	30	0	NEW Barrier and Shield destroying hero Furiluga appears! ★Tap banner for info!	0	0	5	fr	Nouvel anti-barrières et boucliers Furiluga ! ★Bannière pour plus d'infos.	it	Arriva Furiluga: il NUOVO eroe che distrugge barriere e scudi! ★Tocca il banner!	de	NEUER Barrieren- und Schilde-zerstörender Held Furiluga! ★ Tippe auf das Banner!	es	El nuevo héroe, Furiluga, rompe barreras y escudos. ★ ¡Toca para saber más!	th	บาเรียและโล่ใหม่ที่ทำลายฮีโร่ฟุริลูกาปรากฏขึ้น! ★ แตะแบนเนอร์เพื่อดูข้อมูลได้เลย!
20230630	1100	20230703	1100	120400	999999	0	0	1	2	-1	0	0	0	0	0	0	0	0	0	0	0	0	0		741	150	0	16384	0	0	6970	0	2500	0	500	0	30	0	Colossus Slayer Cat Tengu joins the fight! Tap banner for info!	0	5	fr	Chat Tengu, fléau des colosses, rejoint la bataille ! Touche pour plus d'infos !	it	L'ammazzagiganti Gatto Tengu Scende in campo! Tocca il banner!	de	Kolosstöter „Katzen-Tengu“ tritt dem Kampf bei! Tippe auf das Banner!	es	¡Gatengu matacolosos se une a la lucha! ¡Toca para saber más!	th	เซ็ตแมวอูเบอร์สุดเพี้ยน! ★ แตะแบนเนอร์เพื่อดูข้อมูลได้เลย!
20230630	1100	20230703	1100	120400	999999	0	0	1	1	800	150	0	0	0	0	6500	0	2600	0	900	0	0	0	NEW hero Child of Destiny Phono! Plus, higher drop rates for Uber Rare Cats!	5	fr	Nouv. héros Phono l'enfant du destin ! + meilleurs taux d'obt. d'ultra rares !	it	NUOVO eroe Phono figlio del destino! Più probabilità per Gatti ultra rari!	de	NEUE Heldin „Schicksalskind Phono“! Plus mehr megaseltene Katzen!	es	¡NUEVO héroe, «Phono, Hijo del Destino»! ¡Más prob. de conseguir megarraros!	th	ฮีโร่ใหม่ บุตรแห่งโฟโนโชคชะตา และอัตราดร็อปแมวอูเบอร์แรร์สูงกว่าเดิม!
20230703	1100	20230706	1100	120400	999999	0	0	1	1	789	150	0	0	0	0	6440	0	2500	0	1000	0	60	0	Double the Uber / Legend chances! ★ Mythical fantasy Cat heroes!	5	fr	Chance x2 : ultra rare/légendaire ! ★ Des Chats héros mythiques !	it	Doppia occasione di ultra/leggendari! ★ Mitici Gatti fantasy!	de	Doppelte Chance auf Mega/Legenden! ★ Mythische Fantasy-Katzenhelden!	es	¡Megarraros/Legendarios con el doble de probabilidad! ★ ¡Héroes míticos!	th	อูเบอร์คูณสอง / โอกาสตำนาน! ★ ฮีโร่แมวแฟนตาซีในตำนาน!
20230703	1100	20230706	1100	120400	999999	0	0	1	2	-1	0	0	0	0	0	0	0	0	0	0	0	0	0		694	150	0	0	0	0	6440	0	2500	0	1000	0	60	0	Double the Uber / Legend chances! ★ Cosmic cuties, here to crush your enemies!	0	5	fr	Chance x2 : ultra rare/légend. ! ★ Beautés cosmiques qui tueront tes ennemis !	it	Doppia occasione di ultra/leggendari! ★ Bellezze cosmiche distruttive!	de	Doppelte Chance auf Mega/Legenden! ★ Kosmische Fratze vernichten deine Gegner!	es	¡Megarraros/Legendarios con el doble de probabilidad! ★ ¡Bellezas cósmicas!	th	อูเบอร์คูณสอง / โอกาสตำนาน! ★ แมวจักรวาลน่าเอ็นดู มาที่นี่เพื่อปราบศัตรูของคุณ!
20230703	1100	20230706	1100	120400	999999	0	0	1	3	-1	0	0	0	0	0	0	0	0	0	0	0	0	0		-1	0	0	0	0	0	0	0	0	0	0	0	0	0		752	150	0	0	0	0	6440	0	2500	0	1000	0	60	0	Double the Uber / Legend chances! ★ Ultimate anti-Zombie firepower!	0	0	5	fr	Chance x2 : ultra rare/légendaire ! ★ Puissance de feu anti-zombie ultime !	it	Doppia occasione di ultra/leggendari! ★ Potenza anti-zombi finale!	de	Doppelte Chance auf Mega/Legenden! ★ Ultimative Feuerkraft gg. Zombies!	es	¡Megarraros/Legendarios con el doble de probabilidad! ★ ¡Poder antizombi!	th	อูเบอร์คูณสอง / โอกาสตำนาน! ★ กำลังต่อสู้ต้านซอมบี้แบบสุดยอด!
20230706	1100	20230709	1100	120400	999999	0	0	1	1	679	150	0	0	0	0	6440	0	2500	0	1000	0	60	0	Double the Uber / Legend chances! ★ Glorious gods of the Cat pantheon!	5	fr	Chance x2 : ultra rare/légendaire ! ★ Dieux glorieux du panthéon des Chats !	it	Doppia occasione di ultra/leggendari! ★ Gloriosi dèi del pantheon felino!	de	Doppelte Chance auf Mega/Legenden! ★ Grandiose Götter des Katzenpantheons!	es	¡Megarraros/Legendarios con el doble de probabilidad! ★ ¡Dioses del panteón!	th	อูเบอร์คูณสอง / โอกาสตำนาน! ★ สุดยอดเทพแห่งวิหารแมว!
20230706	1100	20230709	1100	120400	999999	0	0	1	2	-1	0	0	0	0	0	0	0	0	0	0	0	0	0		761	150	0	0	0	0	6440	0	2500	0	1000	0	60	0	Double the Uber / Legend chances! ★ Spooky beauties from beyond!	0	5	fr	Chance x2 : ultra rare/légendaire ! ★ Beautés inquiétantes de l’au-delà !	it	Doppia occasione di ultra/leggendari! ★ Bellezze spettrali dall'aldilà!	de	Doppelte Chance auf Mega/Legenden! ★ Gruselschönheiten aus dem Jenseits!	es	¡Megarraros/Legendarios con el doble de probabilidad! ★ ¡Bellezas del más allá!	th	อูเบอร์คูณสอง / โอกาสตำนาน! ★ สาวงามสุดหลอนจากโลกอื่น!
20230706	1100	20230709	1100	120400	999999	0	0	1	3	-1	0	0	0	0	0	0	0	0	0	0	0	0	0		-1	0	0	0	0	0	0	0	0	0	0	0	0	0		626	150	0	0	0	0	6440	0	2500	0	1000	0	60	0	Double the Uber / Legend chances! ★ Unstoppable Eldritch Cats(?)!	0	0	5	fr	Chance x2 : ultra rare/légendaire ! ★ Chats (?) surnaturels invincibles !	it	Doppia occasione di ultra/leggendari! ★ Gatti arcani (?) inarrestabili!	de	Doppelte Chance auf Mega/Legenden! ★ Unaufhaltsame schaurige Katzen(?)!	es	¡Megarraros/Legendarios con el doble de probabilidad! ★ ¡Gatos de Eldritch!	th	อูเบอร์คูณสอง / โอกาสตำนาน! ★ แมวเอลดริตช์เกินต้าน (?)!
20230709	1100	20230712	1100	120400	999999	0	0	1	1	708	150	0	0	0	0	6440	0	2500	0	1000	0	60	0	Double the Uber / Legend chances! ★ Masters of battle join the Cat cause!	5	fr	Chance x2 : ultra rare/légend. ! ★ Maîtres du combat pour la cause des Chats !	it	Doppia occasione di ultra/leggendari! ★ Eroi combattenti per la causa felina!	de	Doppelte Chance auf Mega/Legenden! ★ Kampfmeister schließen sich den Katzen an!	es	¡Megarraros/Legendarios con el doble de probabilidad! ★ ¡Maestros del combate!	th	อูเบอร์คูณสอง / โอกาสตำนาน! ★ ปรมาจารย์แห่งการศึกมาร่วมต่อสู้เพื่อแมวแล้ว!
20230709	1100	20230712	1100	120400	999999	0	0	1	2	-1	0	0	0	0	0	0	0	0	0	0	0	0	0		732	150	0	0	0	0	6440	0	2500	0	1000	0	60	0	Double the Uber / Legend chances! ★ Dragon kings of overwhelming power!	0	5	fr	Chance x2 : ultra rare/légendaire ! ★ Des rois dragons au pouvoir immense !	it	Doppia occasione di ultra/leggendari! ★ Re Dragoni di travolgente potenza!	de	Doppelte Chance auf Mega/Legenden! ★ Überwältigend mächtige Drachenkönige!	es	¡Megarraros/Legendarios con el doble de probabilidad! ★ ¡Reyes dragones!	th	อูเบอร์คูณสอง / โอกาสตำนาน! ★ ราชามังกรแห่งพลังเกินต้าน!
20230709	1100	20230712	1100	120400	999999	0	0	1	3	-1	0	0	0	0	0	0	0	0	0	0	0	0	0		-1	0	0	0	0	0	0	0	0	0	0	0	0	0		718	150	0	0	0	0	6440	0	2500	0	1000	0	60	0	Double the Uber / Legend chances! ★ Adorable avatars of elemental might!	0	0	5	fr	Chance x2 : ultra rare/légendaire ! ★ Adorables avatars de puissance élém. !	it	Doppia occasione di ultra/leggendari! ★ Adorabili avatar di potenza elementale!	de	Doppelte Chance auf Mega/Legenden! ★ Schnuffige Avatare der Elementarmächte!	es	¡Megarraros/Legendarios con el doble de probabilidad! ★ ¡Avatares adorables!	th	อูเบอร์คูณสอง / โอกาสตำนาน! ★ ตัวแทนพลังธาตุสุดน่ารัก!
[end]
