[start]
20180109	1100	20300101	1100	50700	999999	0	0	0	1	0	0	0	0	10000	0	0	0	0	0	0	0	0	0	
20170101	0	20300101	0	80200	999999	0	0	2	3	0	30	0	0	0	0	7500	0	2000	0	500	0	0	0		0	30	0	0	0	0	7500	0	2000	0	500	0	0	0		0	30	0	0	0	0	7500	0	2000	0	500	0	0	0	
20170101	0	20300101	0	80200	999999	0	0	3	3	0	75	0	0	0	0	7500	0	2000	0	500	0	0	0		0	75	0	0	0	0	7500	0	2000	0	500	0	0	0		0	75	0	0	0	0	7500	0	2000	0	500	0	0	0	
20210503	1100	20300101	0	120400	999999	0	0	0	3	-1	0	0	0	0	0	0	0	0	0	0	0	0	0		-1	0	0	0	0	0	0	0	0	0	0	0	0	0		62	0	0	0	0	0	7400	0	2100	0	500	0	0	0	【Limited】 Collect Li'l Cats only during this event!	0	0	5	fr	【Durée limitée】 P’tits Chats uniquement dans cet événement !	it	【Limitato】 Ottieni Mini Gatti solo in questo evento! 	de	(Begrenzt) Sammle nur während dieses Events kleine Katzen!	es	[Exclusivo] ¡Consigue Minigatos solo en este evento!	th	【จำกัด】 เก็บแมวเล็กเฉพาะในอีเวนต์นี้เท่านั้น!
20210416	1100	20300101	0	100400	999999	0	0	0	4	-1	0	0	0	0	0	0	0	0	0	0	0	0	0		-1	0	0	0	0	0	0	0	0	0	0	0	0	0		-1	0	0	0	0	0	0	0	0	0	0	0	0	0		63	0	300	0	0	0	5100	0	3500	0	1400	0	0	0	【Limited Event】 Special chance for XP and Catamins!	0	0	0	5	fr	【Durée limitée】 Chance spéciale d’obtenir XP et vichamines ! 	it	【Evento limitato】 Occasione speciale per XP e Vitamiao! 	de	(Begrenztes Event) Sonderchance auf XP und Katzamine! 	es	[Evento exclusivo] ¡Probabilidad de ganar XP y gataminas!	th	【อีเวนต์จำกัด】 โอกาสพิเศษที่จะได้รับ XP และวิตาเมี้ยว!
20220106	1100	20300101	1100	110100	999999	0	0	0	1	64	0	2300	0	10000	0	0	0	0	0	0	0	0	0		4	fr		it		de		es	
20230512	1100	20300101	0	120200	999999	0	0	1	4	-1	0	0	0	0	0	0	0	0	0	0	0	0	0		-1	0	0	0	0	0	0	0	0	0	0	0	0	0		-1	0	0	0	0	0	0	0	0	0	0	0	0	0		803	0	0	0	0	0	0	0	0	0	9500	0	500	0	Get a Guaranteed Uber or Legend Rare from the Legend Capsules!	0	0	0	5	fr	Un ultra rare ou un légendaire garanti dans les Chapsules légendaires !	it	Ottieni un'unità ultra rara o leggendaria garantita dalle Capsule leggendarie!	de	Garantiert eine mega- oder legendär seltene Katze aus legendären Kapseln!	es	¡Una unidad megarrara o legendaria garantizada en las bolas legendarias!	th	ได้อูเบอร์หรือแรร์ตำนานแบบรับประกันจากกาชาตำนาน!
20230512	1100	20300101	0	120200	999999	0	0	1	5	-1	0	0	0	0	0	0	0	0	0	0	0	0	0		-1	0	0	0	0	0	0	0	0	0	0	0	0	0		-1	0	0	0	0	0	0	0	0	0	0	0	0	0		-1	0	0	0	0	0	0	0	0	0	0	0	0	0		802	0	0	0	0	0	0	0	0	0	10000	0	0	0	Get an Uber Rare Cat!! 100% Uber drop Rate in the PLATINUM CAPSULES!	0	0	0	0	5	fr	Obtiens un ultra rare ! 100 % de chances avec les Chapsules platine !	it	Ottieni un gatto ultra raro! 100% possibilità di Ultra nelle CAPSULE PLATINO!	de	Hol dir eine megaseltene Katze!! 100-%-Chance in den PLATINKAPSELN!	es	¡Gana un gato megarraro! Garantizado en las BOLAS DE PLATINO.	th	รับแมวอูเบอร์แรร์ไปเลย!! อัตราดร็อปอูเบอร์ 100% ในกาชาแพลตินัม!
20230814	1100	20230926	0	120500	999999	0	0	4	2	-1	0	0	0	0	0	0	0	0	0	0	0	0	0				26	0	0	0	500	0	6000	0	2300	0	1000	1	200	0	【Summer Break Cats】 Catch items & limited Cats using Legend Nets, thru 9/25!		 more draws until a guaranteed Bug hero!	0	5	fr	【Chats de vacances d'été】 Attrape obj. et Chats au filet légend. jusqu'au 25/9 !		 tirages supplémentaires avant d'obtenir un insecte garanti.	it	【Gatti estivi】 Oggetti e Gatti limitati con le reti leggendarie, fino al 25/09!	Altri 	 sorteggi fino a un eroe insetto garantito!	de	(Sommerferienkatzen) Bis 25.9.: Gegenst. & limit. Katzen mit Legendennetzen!		 Ziehungen bis zum garantierten Käferhelden!	es	¡Gatos Estivales! ¡Pesca objetos y unidades con redes legendarias hasta el 25/9!	¡ 	 aperturas más para tener un bicho héroe garantizado!	th	【แมวพักฤดูร้อน】 จับไอเทมและแมวจำกัดมาให้ได้โดยใช้ตาข่ายตำนาน จนถึงวันที่ 25/9!	สุ่ม 	 ครั้งถัดไปจึงจะได้รับฮีโร่แมลงแบบการันตี!
20230814	1100	20230904	1100	120500	999999	0	0	1	2	-1	0	0	0	0	0	0	0	0	0	0	0	0	0		831	150	0	16384	0	0	7000	0	2500	0	500	0	0	0	New heroes appear for summer fun! ★ Tap banner for info!	0	5	fr	Nouvelle dame de l’été à découvrir ! ★ Touche pour plus d’infos !	it	Ci sono novità tra le Ragazze estive! ★ Tocca il banner!	de	Die Sommermädchen haben ein neues Mitglied! ★ Tippe auf das Banner!	es	¡Nuevo miembro de las chicas de verano! ★ ¡Toca para saber más!	th	สาวๆ ฤดูร้อนมาพร้อมกับสมาชิกใหม่ ★ แตะแบนเนอร์เพื่อดูข้อมูลได้เลย!
20230821	1100	20230825	1100	120500	999999	0	0	1	1	830	150	0	0	0	0	6770	0	2500	0	700	0	30	0	Joining forces from Seasonal sets, with higher drop rates!	5	fr	En renfort des ensembles saisonniers, avec des taux d’obt. plus élevés !	it	Unisciti alle forze dei set stagionali, con maggiori probabilità di ottenerli!	de	Sie stößt zu den Truppen aus den Saisonsets, mit höheren Chancen!	es	Las series de temporada se unen, ¡con más probabilidad de conseguir unidades!	th	ทีมผนึกกำลังจากเซ็ตฤดูกาล พร้อมอัตราดร็อปที่สูงขึ้น!
20230825	1100	20230828	1100	120500	999999	0	0	1	1	812	150	0	0	0	0	6970	0	2500	0	500	1	30	0	Introducing NEW hero: the uncanny lifeform Kaoluga! ★ Tap banner for more info!	5	fr	NOUVEAU héros : l’étrange entité Kaoluga ! ★ Touche pour plus d’infos !	it	Ecco un NUOVO eroe: Kalouga la creatura misteriosa! ★ Tocca il banner!	de	NEUER Held: unheimliche Lebensform Kaoluga! ★ Tippe auf das Banner!	es	NUEVO héroe: ¡Kaoluga, una insólita forma de vida! ★ ¡Toca para saber más!	th	แนะนำฮีโร่ใหม่: สิ่งมีชีวิตประหลาด คาโอลูก้า! ★ แตะแบนเนอร์เพื่อดูข้อมูลได้เลย!
20230825	1100	20300101	000	120500	999999	0	0	1	4	-1	0	0	0	0	0	0	0	0	0	0	0	0	0		-1	0	0	0	0	0	0	0	0	0	0	0	0	0		-1	0	0	0	0	0	0	0	0	0	0	0	0	0		833	0	0	0	0	0	0	0	0	0	9500	0	500	0	Get a Guaranteed Uber or Legend Rare from the Legend Capsules!	0	0	0	5	fr	Un ultra rare ou un légendaire garanti dans les Chapsules légendaires !	it	Ottieni un'unità ultra rara o leggendaria garantita dalle Capsule leggendarie!	de	Garantiert eine mega- oder legendär seltene Katze aus legendären Kapseln!	es	¡Una unidad megarrara o legendaria garantizada en las bolas legendarias!	th	ได้อูเบอร์หรือแรร์ตำนานแบบรับประกันจากกาชาตำนาน!
20230825	1100	20300101	000	120500	999999	0	0	1	5	-1	0	0	0	0	0	0	0	0	0	0	0	0	0		-1	0	0	0	0	0	0	0	0	0	0	0	0	0		-1	0	0	0	0	0	0	0	0	0	0	0	0	0		-1	0	0	0	0	0	0	0	0	0	0	0	0	0		832	0	0	0	0	0	0	0	0	0	10000	0	0	0	Get an Uber Rare Cat!! 100% Uber drop Rate in the PLATINUM CAPSULES!	0	0	0	0	5	fr	Obtiens un ultra rare ! 100 % de chances avec les Chapsules platine !	it	Ottieni un gatto ultra raro! 100% possibilità di Ultra nelle CAPSULE PLATINO!	de	Hol dir eine megaseltene Katze!! 100-%-Chance in den PLATINKAPSELN!	es	¡Gana un gato megarraro! Garantizado en las BOLAS DE PLATINO.	th	รับแมวอูเบอร์แรร์ไปเลย!! อัตราดร็อปอูเบอร์ 100% ในกาชาแพลตินัม!
20230825	1100	20230904	1100	120500	999999	0	0	1	2	-1	0	0	0	0	0	0	0	0	0	0	0	0	0		831	150	0	0	0	0	7000	0	2500	0	500	1	0	0	New heroes appear for summer fun! ★ Tap banner for info!	0	5	fr	Nouvelle dame de l’été à découvrir ! ★ Touche pour plus d’infos !	it	Ci sono novità tra le Ragazze estive! ★ Tocca il banner!	de	Die Sommermädchen haben ein neues Mitglied! ★ Tippe auf das Banner!	es	¡Nuevo miembro de las chicas de verano! ★ ¡Toca para saber más!	th	สาวๆ ฤดูร้อนมาพร้อมกับสมาชิกใหม่ ★ แตะแบนเนอร์เพื่อดูข้อมูลได้เลย!
20230828	1100	20230911	1100	120500	999999	0	0	1	1	486	150	0	16384	0	0	7000	0	2500	0	500	0	0	0	Survive! Mola Mola! Collab Capsules! ★ Tap the banner for info!	5	fr	Survive! Mola Mola! Collab Capsules! ★ Tap the banner for info!	it	Survive! Mola Mola! Collab Capsules! ★ Tap the banner for info!	de	Survive! Mola Mola! Collab Capsules! ★ Tap the banner for info!	es	Survive! Mola Mola! Collab Capsules! ★ Tap the banner for info!	th	Survive! Mola Mola! Collab Capsules! ★ Tap the banner for info!
20230828	1100	20230904	1100	120500	999999	0	0	1	2	-1	0	0	0	0	0	0	0	0	0	0	0	0	0		831	150	0	16384	0	0	7000	0	2500	0	500	0	0	0	New heroes appear for summer fun! ★ Tap banner for info!	0	5	fr	Nouvelle dame de l’été à découvrir ! ★ Touche pour plus d’infos !	it	Ci sono novità tra le Ragazze estive! ★ Tocca il banner!	de	Die Sommermädchen haben ein neues Mitglied! ★ Tippe auf das Banner!	es	¡Nuevo miembro de las chicas de verano! ★ ¡Toca para saber más!	th	สาวๆ ฤดูร้อนมาพร้อมกับสมาชิกใหม่ ★ แตะแบนเนอร์เพื่อดูข้อมูลได้เลย!
20230828	1100	20230830	1100	120500	999999	0	0	1	3	-1	0	0	0	0	0	0	0	0	0	0	0	0	0		-1	0	0	0	0	0	0	0	0	0	0	0	0	0		742	150	0	16384	0	0	6970	0	2500	0	500	0	30	0	Colossus Slayer Cat Tengu joins the fight! Tap banner for info!	0	0	5	fr	Chat Tengu, fléau des colosses, rejoint la bataille ! Touche pour plus d'infos !	it	L'ammazzagiganti Gatto Tengu Scende in campo! Tocca il banner!	de	Kolosstöter „Katzen-Tengu“ tritt dem Kampf bei! Tippe auf das Banner!	es	¡Gatengu matacolosos se une a la lucha! ¡Toca para saber más!	th	มือสังหารยักษ์ แมวเทงกุ มาร่วมต่อสู้ด้วย! แตะแบนเนอร์เพื่อดูข้อมูลได้เลย!
20230830	1100	20230901	1100	120500	999999	0	0	1	3	-1	0	0	0	0	0	0	0	0	0	0	0	0	0		-1	0	0	0	0	0	0	0	0	0	0	0	0	0		753	150	0	16384	0	0	6970	0	2500	0	500	0	30	0	Colossus Slayer Mighty Carrowsell has been added! Tap the banner for details!	0	0	5	fr	Puissant Charrousel (fléau des colosses)ajouté ! Touche la bannière !	it	Aggiunta l'ammazzagiganti Muggiostra possente! Tocca il banner per dettagli!	de	Der Kolosstöter Mächtiges Karussell wurde hinzugefügt! Tippe auf das Banner!	es	¡Se ha añadido el matacolosos Garrusel brutal! ¡Toca para saber más!	th	หยุดฝูงซอมบี้ด้วยเทคโนโลยีสงครามสุดล้ำ! ★ แตะแบนเนอร์เพื่อดูข้อมูลได้เลย!
20230901	1100	20230904	1100	120500	999999	0	0	1	1	813	150	0	0	0	0	6500	0	2600	0	900	0	0	0	NEW hero Child of Destiny Phono! Plus, higher drop rates for Uber Rare Cats!	5	fr	Nouv. héros Phono l'enfant du destin ! + meilleurs taux d'obt. d'ultra rares !	it	NUOVO eroe Phono figlio del destino! Più probabilità per Gatti ultra rari!	de	NEUE Heldin „Schicksalskind Phono“! Plus mehr megaseltene Katzen!	es	¡NUEVO héroe, «Phono, Hijo del Destino»! ¡Más prob. de conseguir megarraros!	th	ฮีโร่ใหม่ บุตรแห่งโฟโนโชคชะตา และอัตราดร็อปแมวอูเบอร์แรร์สูงกว่าเดิม!
20230901	1100	20230911	1100	120500	999999	0	0	1	2	-1	0	0	0	0	0	0	0	0	0	0	0	0	0		486	150	0	16384	0	0	7000	0	2500	0	500	0	0	0	Survive! Mola Mola! Collab Capsules! ★ Tap the banner for info!	0	5	fr	Survive! Mola Mola! Collab Capsules! ★ Tap the banner for info!	it	Survive! Mola Mola! Collab Capsules! ★ Tap the banner for info!	de	Survive! Mola Mola! Collab Capsules! ★ Tap the banner for info!	es	Survive! Mola Mola! Collab Capsules! ★ Tap the banner for info!	th	Survive! Mola Mola! Collab Capsules! ★ Tap the banner for info!
20230901	1100	20230904	1100	120500	999999	0	0	1	3	-1	0	0	0	0	0	0	0	0	0	0	0	0	0		-1	0	0	0	0	0	0	0	0	0	0	0	0	0		831	150	0	16384	0	0	7000	0	2500	0	500	0	0	0	New heroes appear for summer fun! ★ Tap banner for info!	0	0	5	fr	Nouvelle dame de l’été à découvrir ! ★ Touche pour plus d’infos !	it	Ci sono novità tra le Ragazze estive! ★ Tocca il banner!	de	Die Sommermädchen haben ein neues Mitglied! ★ Tippe auf das Banner!	es	¡Nuevo miembro de las chicas de verano! ★ ¡Toca para saber más!	th	สาวๆ ฤดูร้อนมาพร้อมกับสมาชิกใหม่ ★ แตะแบนเนอร์เพื่อดูข้อมูลได้เลย!
20230904	1100	20230911	1100	120500	999999	0	0	1	1	486	150	0	20600	0	0	7000	0	2500	0	500	0	0	0	Survive! Mola Mola! Collab Capsules! ★ Tap the banner for info!	5	fr	Survive! Mola Mola! Collab Capsules! ★ Tap the banner for info!	it	Survive! Mola Mola! Collab Capsules! ★ Tap the banner for info!	de	Survive! Mola Mola! Collab Capsules! ★ Tap the banner for info!	es	Survive! Mola Mola! Collab Capsules! ★ Tap the banner for info!	th	Survive! Mola Mola! Collab Capsules! ★ Tap the banner for info!
20230904	1100	20230906	1100	120500	999999	0	0	1	2	-1	0	0	0	0	0	0	0	0	0	0	0	0	0		761	150	0	20600	0	0	6970	0	2500	0	500	0	30	0	New Colossus Slayer Spectral Goth Vega added! Tap banner for details!	0	5	fr	Nouveau Fléau des colosses Déesse spectrale Véga ! Touche la bannière !	it	Nuova ammazzagiganti: Vega gotica spettrale! Tocca il banner per dettagli!	de	Neuer Kolosstöter Spektralgrufti Vega hinzugefügt! Tippe auf das Banner!	es	¡Nueva Gótica espectral Vega matacolosos añadida! ¡Toca para ver los detalles!	th	เพิ่มมือสังหารยักษ์ก็อธเวก้าภูติผีแล้ว! แตะดูรายละเอียดได้ที่แบนเนอร์!
20230906	1100	20230908	1100	120500	999999	0	0	1	2	-1	0	0	0	0	0	0	0	0	0	0	0	0	0		695	150	0	20600	0	0	6970	0	2500	0	500	0	30	0	Take down Colossal prey with NEW hero Huntress Terun! ★ Tap for info!	0	5	fr	Abats les colosses avec Terun chasseresse ! ★ Touche pour des infos	it	Elimina nemici giganti con la NUOVA unità Terun cacciatrice! ★ Tocca per info!	de	Vernichte kolossale Ziele: NEUE Heldin „Jägerin Terun“! ★ Tippe für mehr Info!	es	¡Derrota a presas colosales con Terun Cazadora! ★ ¡Toca para saber más!	th	ปราบเหยื่อยักษ์ด้วยฮีโร่ใหม่อย่าง เทรันนักล่า! ★ แตะเพื่อดูข้อมูลเลย!
20230908	1100	20230911	1100	120500	999999	0	0	1	1	486	150	0	4216	0	0	7000	0	2500	0	500	1	0	0	Survive! Mola Mola! Collab Capsules! ★ Tap the banner for info!	5	fr	Survive! Mola Mola! Collab Capsules! ★ Tap the banner for info!	it	Survive! Mola Mola! Collab Capsules! ★ Tap the banner for info!	de	Survive! Mola Mola! Collab Capsules! ★ Tap the banner for info!	es	Survive! Mola Mola! Collab Capsules! ★ Tap the banner for info!	th	Survive! Mola Mola! Collab Capsules! ★ Tap the banner for info!
20230908	1100	20230911	1100	120500	999999	0	0	1	2	-1	0	0	0	0	0	0	0	0	0	0	0	0	0		733	150	0	4216	0	0	6970	0	2500	0	500	1	30	0	Colossus Slayer Daliasan joins the fight! Tap banner for info!	0	5	fr	Daliasan, fléau des colosses, rejoint la bataille ! Touche pour plus d'infos !	it	L'ammazzagiganti Daliasan scende in campo! Tocca il banner!	de	Kolosstöter „Daliasan“ tritt dem Kampf bei! Tippe auf das Banner!	es	¡Daliasan matacolosos se une a la lucha! ¡Toca para saber más!	th	มือสังหารยักษ์ ดาเลียซาน มาร่วมต่อสู้ด้วย! แตะแบนเนอร์เพื่อดูข้อมูลได้เลย!
[end]
