[start]
20180109	1100	20300101	1100	50700	999999	0	0	0	1	0	0	0	0	10000	0	0	0	0	0	0	0	0	0	
20170101	0	20300101	0	80200	999999	0	0	2	3	0	30	0	0	0	0	7500	0	2000	0	500	0	0	0		0	30	0	0	0	0	7500	0	2000	0	500	0	0	0		0	30	0	0	0	0	7500	0	2000	0	500	0	0	0	
20170101	0	20300101	0	80200	999999	0	0	3	3	0	75	0	0	0	0	7500	0	2000	0	500	0	0	0		0	75	0	0	0	0	7500	0	2000	0	500	0	0	0		0	75	0	0	0	0	7500	0	2000	0	500	0	0	0	
20201009	1100	20300101	1100	90900	999999	0	0	1	4	-1	0	0	0	0	0	0	0	0	0	0	0	0	0		-1	0	0	0	0	0	0	0	0	0	0	0	0	0		-1	0	0	0	0	0	0	0	0	0	0	0	0	0		525	0	0	0	0	0	0	0	0	0	10000	0	0	0	울트라 슈퍼 레어 캐릭터를 반드시 뽑을 수 있는 ★플래티넘 뽑기★
20201113	1100	20300101	1100	91000	999999	0	0	1	4	-1	0	0	0	0	0	0	0	0	0	0	0	0	0		-1	0	0	0	0	0	0	0	0	0	0	0	0	0		-1	0	0	0	0	0	0	0	0	0	0	0	0	0		543	0	0	0	0	0	0	0	0	0	10000	0	0	0	울트라 슈퍼 레어 캐릭터 100% 획득 가능! ★플래티넘 뽑기★
20210212	000	20300101	1100	100200	999999	0	0	1	4	-1	0	0	0	0	0	0	0	0	0	0	0	0	0		-1	0	0	0	0	0	0	0	0	0	0	0	0	0		-1	0	0	0	0	0	0	0	0	0	0	0	0	0		556	0	0	0	0	0	0	0	0	0	10000	0	0	0	울트라 슈퍼 레어 캐릭터 100% 획득 가능! ★플래티넘 뽑기★
20210503	1100	20300101	0	100400	999999	0	0	0	3	-1	0	0	0	0	0	0	0	0	0	0	0	0	0		-1	0	0	0	0	0	0	0	0	0	0	0	0	0		62	0	0	0	0	0	7400	0	2100	0	500	0	0	0	【기간한정】 꼬맹이 고양이들을 손에 넣을 수 있는 특별 이벤트 뽑기 등장!
20210416	1100	20300101	0	100400	999999	0	0	0	4	-1	0	0	0	0	0	0	0	0	0	0	0	0	0		-1	0	0	0	0	0	0	0	0	0	0	0	0	0		-1	0	0	0	0	0	0	0	0	0	0	0	0	0		63	0	300	0	0	0	5100	0	3500	0	1400	0	0	0	【기간한정】 고양이 드링크와 XP를 GET할 수 있는 특별 뽑기!
20210507	1100	20300101	1100	100400	999999	0	0	1	4	-1	0	0	0	0	0	0	0	0	0	0	0	0	0		-1	0	0	0	0	0	0	0	0	0	0	0	0	0		-1	0	0	0	0	0	0	0	0	0	0	0	0	0		577	0	0	0	0	0	0	0	0	0	10000	0	0	0	울트라 슈퍼 레어 캐릭터 100% 획득 가능! ★플래티넘 뽑기★
20210621	1100	20210623	1100	100500	999999	0	0	1	1	517	150	0	0	0	0	6970	0	2500	0	500	0	30	0	수수께끼에 싸인 생명체! '전설의 고양이 루가족'★자세한 내용은 배너를 클릭!!
20210623	1100	20210625	1100	100500	999999	0	0	1	1	433	150	0	0	0	0	6970	0	2500	0	500	0	30	0	압도적인 존재감을 내뿜는 강력한 드래곤들!★자세한 내용은 배너를 클릭!
20210625	1100	20210709	0	100600	999999	0	0	0	2	-1	0	0	0	0	0	7500	0	2000	0	500	0	0	0		5	0	0	2	500	0	7000	0	2000	0	500	0	0	0	☆기간 한정★높은 확률로 캣츠아이를 획득할 수 있는 특별 뽑기!☆
20210625	1100	20210628	1100	100600	999999	0	0	1	1	594	150	0	0	0	0	7000	0	2500	0	500	0	0	0	신 캐릭터가 다수 추가된 7주년 기념 특별 뽑기!★자세한 내용은 배너를 클릭!
20210625	1100	20210628	1100	100600	999999	0	0	1	2	-1	150	0	0	0	0	7500	0	2000	0	500	0	0	0		538	150	0	0	0	0	6970	0	2500	0	500	0	30	0	★우주에서 온 개성 넘치는 깜찍한 정령들!★자세한 내용은 배너를 클릭!!★
20210628	1100	20210702	1100	100600	999999	0	0	1	1	582	150	0	0	0	0	6770	0	2500	0	700	0	30	0	계절 한정 캐릭터 총집합!★울슈레 출현율 대폭 UP! '울트라 국왕 축제' 개최 중!
20210628	1100	20210630	1100	100600	999999	0	0	1	2	-1	150	0	0	0	0	7500	0	2000	0	500	0	0	0		497	150	0	0	0	0	6970	0	2500	0	500	0	30	0	냥코 월드의 위대한 신들이 이곳에 집결!★자세한 내용은 배너를 클릭!
20210630	1100	20210702	1100	100600	999999	0	0	1	2	-1	150	0	0	0	0	7500	0	2000	0	500	0	0	0		487	150	0	0	0	0	6970	0	2500	0	500	0	30	0	정의와 어둠의 힘을 둘 다 갖춘 냥코 군단의 구세주들!★자세한 내용은 배너를 탭!	0	0
20210702	1100	20210705	1100	100600	999999	0	0	1	1	575	150	0	0	0	0	6500	0	2600	0	900	0	0	0	신 캐릭터 '요수 가루' 참전!★울슈레 출현율 초 UP! 울트라 고양이 축제 개최 중!
20210705	1100	20210709	000	100600	999999	0	0	1	1	599	150	0	0	0	0	6970	0	2500	0	500	0	30	0	7주년 기념! 감사의 마음을 담은 특별 셀렉션 뽑기!★자세한 내용은 배너를 클릭!
20210705	1100	20210707	1100	100600	999999	0	0	1	2	-1	0	0	0	0	0	0	0	0	0	0	0	0	0		475	150	0	0	0	0	6970	0	2500	0	500	0	30	0	냥코 월드 최대급 진화! 초고대 전설의 용사들!★자세한 내용은 배너를 클릭!
20210707	1100	20210709	0	100600	999999	0	0	1	2	-1	0	0	0	0	0	0	0	0	0	0	0	0	0		572	150	0	0	0	0	6970	0	2500	0	500	0	30	0	신 캐릭터 '공중상사 콜럼버스' 참전!★냥코 군단의 초병기!★자세한 내용은 배너를 클릭!	0	0
[end]
