[start]
20180109	1100	20300101	1100	50700	999999	0	0	0	1	0	0	0	0	10000	0	0	0	0	0	0	0	0	0	
20170101	0	20300101	0	80200	999999	0	0	2	3	0	30	0	0	0	0	7500	0	2000	0	500	0	0	0		0	30	0	0	0	0	7500	0	2000	0	500	0	0	0		0	30	0	0	0	0	7500	0	2000	0	500	0	0	0	
20170101	0	20300101	0	80200	999999	0	0	3	3	0	75	0	0	0	0	7500	0	2000	0	500	0	0	0		0	75	0	0	0	0	7500	0	2000	0	500	0	0	0		0	75	0	0	0	0	7500	0	2000	0	500	0	0	0	
20210503	1100	20300101	0	100400	999999	0	0	0	3	-1	0	0	0	0	0	0	0	0	0	0	0	0	0		-1	0	0	0	0	0	0	0	0	0	0	0	0	0		62	0	0	0	0	0	7400	0	2100	0	500	0	0	0	【기간한정】 꼬맹이 고양이들을 손에 넣을 수 있는 특별 이벤트 뽑기 등장!
20210416	1100	20300101	0	100400	999999	0	0	0	4	-1	0	0	0	0	0	0	0	0	0	0	0	0	0		-1	0	0	0	0	0	0	0	0	0	0	0	0	0		-1	0	0	0	0	0	0	0	0	0	0	0	0	0		63	0	300	0	0	0	5100	0	3500	0	1400	0	0	0	【기간한정】 고양이 드링크와 XP를 GET할 수 있는 특별 뽑기!
20220106	1100	20300101	1100	110100	999999	0	0	0	1	64	0	2300	0	10000	0	0	0	0	0	0	0	0	0	
20220527	1100	20300101	1100	110400	999999	0	0	1	4	-1	0	0	0	0	0	0	0	0	0	0	0	0	0		-1	0	0	0	0	0	0	0	0	0	0	0	0	0		-1	0	0	0	0	0	0	0	0	0	0	0	0	0		723	0	0	0	0	0	0	0	0	0	9500	0	500	0	울슈레 이상 캐릭터 반드시 1개이상 확정 획득 가능! ★레전드 뽑기★
20220527	1100	20300101	1100	110400	999999	0	0	1	5	-1	0	0	0	0	0	0	0	0	0	0	0	0	0		-1	0	0	0	0	0	0	0	0	0	0	0	0	0		-1	0	0	0	0	0	0	0	0	0	0	0	0	0		-1	0	0	0	0	0	0	0	0	0	0	0	0	0		722	0	0	0	0	0	0	0	0	0	10000	0	0	0	울트라 슈퍼 레어 캐릭터 100% 획득 가능! ★플래티넘 뽑기★
20220715	1100	20300101	1100	110600	999999	0	0	1	4	-1	0	0	0	0	0	0	0	0	0	0	0	0	0		-1	0	0	0	0	0	0	0	0	0	0	0	0	0		-1	0	0	0	0	0	0	0	0	0	0	0	0	0		730	0	0	0	0	0	0	0	0	0	9500	0	500	0	울슈레 이상 캐릭터 반드시 1개이상 확정 획득 가능! ★레전드 뽑기★
20220715	1100	20300101	1100	110600	999999	0	0	1	5	-1	0	0	0	0	0	0	0	0	0	0	0	0	0		-1	0	0	0	0	0	0	0	0	0	0	0	0	0		-1	0	0	0	0	0	0	0	0	0	0	0	0	0		-1	0	0	0	0	0	0	0	0	0	0	0	0	0		729	0	0	0	0	0	0	0	0	0	10000	0	0	0	울트라 슈퍼 레어 캐릭터 100% 획득 가능! ★플래티넘 뽑기★
20220802	1100	20300101	1100	110700	999999	0	0	1	4	-1	0	0	0	0	0	0	0	0	0	0	0	0	0		-1	0	0	0	0	0	0	0	0	0	0	0	0	0		-1	0	0	0	0	0	0	0	0	0	0	0	0	0		736	0	0	0	0	0	0	0	0	0	9500	0	500	0	울슈레 이상 캐릭터 반드시 1개이상 확정 획득 가능! ★레전드 뽑기★
20220802	1100	20300101	1100	110700	999999	0	0	1	5	-1	0	0	0	0	0	0	0	0	0	0	0	0	0		-1	0	0	0	0	0	0	0	0	0	0	0	0	0		-1	0	0	0	0	0	0	0	0	0	0	0	0	0		-1	0	0	0	0	0	0	0	0	0	0	0	0	0		735	0	0	0	0	0	0	0	0	0	10000	0	0	0	울트라 슈퍼 레어 캐릭터 100% 획득 가능! ★플래티넘 뽑기★
20220826	1100	20300101	1100	110700	999999	0	0	1	4	-1	0	0	0	0	0	0	0	0	0	0	0	0	0		-1	0	0	0	0	0	0	0	0	0	0	0	0	0		-1	0	0	0	0	0	0	0	0	0	0	0	0	0		746	0	0	0	0	0	0	0	0	0	9500	0	500	0	울슈레 이상 캐릭터 반드시 1개이상 확정 획득 가능! ★레전드 뽑기★
20220826	1100	20300101	1100	110700	999999	0	0	1	5	-1	0	0	0	0	0	0	0	0	0	0	0	0	0		-1	0	0	0	0	0	0	0	0	0	0	0	0	0		-1	0	0	0	0	0	0	0	0	0	0	0	0	0		-1	0	0	0	0	0	0	0	0	0	0	0	0	0		745	0	0	0	0	0	0	0	0	0	10000	0	0	0	울트라 슈퍼 레어 캐릭터 100% 획득 가능! ★플래티넘 뽑기★
20221019	1100	20300101	1100	110800	999999	0	0	1	4	-1	0	0	0	0	0	0	0	0	0	0	0	0	0		-1	0	0	0	0	0	0	0	0	0	0	0	0	0		-1	0	0	0	0	0	0	0	0	0	0	0	0	0		756	0	0	0	0	0	0	0	0	0	9500	0	500	0	울슈레 이상 캐릭터 반드시 1개이상 확정 획득 가능! ★레전드 뽑기★
20221019	1100	20300101	1100	110800	999999	0	0	1	5	-1	0	0	0	0	0	0	0	0	0	0	0	0	0		-1	0	0	0	0	0	0	0	0	0	0	0	0	0		-1	0	0	0	0	0	0	0	0	0	0	0	0	0		-1	0	0	0	0	0	0	0	0	0	0	0	0	0		755	0	0	0	0	0	0	0	0	0	10000	0	0	0	울트라 슈퍼 레어 캐릭터 100% 획득 가능! ★플래티넘 뽑기★
20221128	1100	20221212	1100	111000	999999	0	0	1	1	777	150	0	16384	0	0	6970	0	2500	0	500	0	30	0	신캐릭터 '카스가노 사쿠라' 참전! 스트리트 파이터V 뽑기!★자세한 내용은 배너를 클릭!
20221128	1100	20221212	1100	111000	999999	0	0	1	2	-1	0	0	0	0	0	0	0	0	0	0	0	0	0		778	150	0	16384	0	0	6970	0	2500	0	500	0	30	0	신캐릭터 '루크' 참전! 스트리트 파이터V 뽑기!★자세한 내용은 배너를 클릭!
20221202	1100	20221212	1100	111000	999999	0	0	1	2	-1	0	0	0	0	0	0	0	0	0	0	0	0	0		777	150	0	16384	0	0	6970	0	2500	0	500	0	30	0	신캐릭터 '카스가노 사쿠라' 참전! 스트리트 파이터V 뽑기!★자세한 내용은 배너를 클릭!
20221202	1100	20221212	1100	111000	999999	0	0	1	3	-1	0	0	0	0	0	0	0	0	0	0	0	0	0		-1	0	0	0	0	0	0	0	0	0	0	0	0	0		778	150	0	16384	0	0	6970	0	2500	0	500	0	30	0	신캐릭터 '루크' 참전! 스트리트 파이터V 뽑기!★자세한 내용은 배너를 클릭!
20221205	1100	20221212	1100	111000	999999	0	0	1	1	777	150	0	16384	0	0	6970	0	2500	0	500	0	30	0	신캐릭터 '카스가노 사쿠라' 참전! 스트리트 파이터V 뽑기!★자세한 내용은 배너를 클릭!
20221205	1100	20221212	1100	111000	999999	0	0	1	2	-1	0	0	0	0	0	0	0	0	0	0	0	0	0		778	150	0	16384	0	0	6970	0	2500	0	500	0	30	0	신캐릭터 '루크' 참전! 스트리트 파이터V 뽑기!★자세한 내용은 배너를 클릭!
20221207	1100	20221209	1100	111000	999999	0	0	1	3	-1	0	0	0	0	0	0	0	0	0	0	0	0	0		-1	0	0	0	0	0	0	0	0	0	0	0	0	0		732	150	0	16384	0	0	6970	0	2500	0	500	0	30	0	초생명체 특효를 가진 캐릭터 '해룡 다라이어던' 참전!★자세한 내용은 배너를 클릭!
20221209	1100	20221212	1100	111000	999999	0	0	1	1	777	150	0	0	0	0	6970	0	2500	0	500	1	30	0	신캐릭터 '카스가노 사쿠라' 참전! 스트리트 파이터V 뽑기!★10+1 연속 뽑기 울슈레 확정!
20221209	1100	20221212	1100	111000	999999	0	0	1	2	-1	0	0	0	0	0	0	0	0	0	0	0	0	0		778	150	0	0	0	0	6970	0	2500	0	500	1	30	0	신캐릭터 '루크' 참전! 스트리트 파이터V 뽑기!★10+1 연속 뽑기 울슈레 확정!
20221209	1100	20221212	1100	111000	999999	0	0	1	3	-1	0	0	0	0	0	0	0	0	0	0	0	0	0		-1	0	0	0	0	0	0	0	0	0	0	0	0	0		761	150	0	0	0	0	6970	0	2500	0	500	1	30	0	초생명제 특효를 가진 캐릭터 '여신 베가' 참전!★자세한 내용은 배너를 클릭!!
20221212	1100	20221226	1100	111000	999999	0	0	1	1	765	150	0	0	0	0	7000	0	2500	0	500	0	0	0	열혈 캐릭터 대 집결! '열혈경파 쿠니오군' 레어 뽑기가 새롭게 등장!★자세한 내용은 배너를 클릭!★
20221212	1100	20221226	1100	111000	999999	0	0	1	2	-1	0	0	0	0	0	0	0	0	0	0	0	0	0		776	150	0	16384	0	0	7000	0	2500	0	500	0	0	0	신캐릭터 추가! 크리스마스 한정 캐릭터 GET 찬스!♥자세한 내용은 배너를 클릭!
20221212	1100	20221214	1100	111000	999999	0	0	1	3	-1	0	0	0	0	0	0	0	0	0	0	0	0	0		-1	0	0	0	0	0	0	0	0	0	0	0	0	0		695	150	0	16384	0	0	6970	0	2500	0	500	0	30	0	초생명체에게 강한 캐릭터 '테룬' 참전!★자세한 내용은 배너를 클릭!!★
20221214	1100	20221216	1100	111000	999999	0	0	1	3	-1	0	0	0	0	0	0	0	0	0	0	0	0	0		-1	0	0	0	0	0	0	0	0	0	0	0	0	0		662	150	0	16384	0	0	6970	0	2500	0	500	0	30	0	악마와 에이리언에 강한 캐릭터 '백기사 키클롭스' 참전!★자세한 내용은 배너를 클릭!
20221216	1100	20221219	1100	111000	999999	0	0	1	1	759	150	0	0	0	0	6500	0	2600	0	900	0	0	0	신캐릭터 '비탄의 무희 이즈' 참전!★울슈레 출현율 초 UP! 하이퍼 고양이 축제 개최 중!
20221216	1100	20221226	1100	111000	999999	0	0	1	2	-1	0	0	0	0	0	0	0	0	0	0	0	0	0		765	150	0	0	0	0	7000	0	2500	0	500	0	0	0	열혈 캐릭터 대 집결! '열혈경파 쿠니오군' 레어 뽑기가 새롭게 등장!★자세한 내용은 배너를 클릭!★
20221216	1100	20221226	1100	111000	999999	0	0	1	3	-1	0	0	0	0	0	0	0	0	0	0	0	0	0		-1	0	0	0	0	0	0	0	0	0	0	0	0	0		776	150	0	16384	0	0	7000	0	2500	0	500	0	0	0	신캐릭터 추가! 크리스마스 한정 캐릭터 GET 찬스!♥자세한 내용은 배너를 클릭!
20221219	1100	20221226	1100	111000	999999	0	0	1	1	765	150	0	0	0	0	7000	0	2500	0	500	0	0	0	열혈 캐릭터 대 집결! '열혈경파 쿠니오군' 레어 뽑기가 새롭게 등장!★자세한 내용은 배너를 클릭!★
20221219	1100	20221226	1100	111000	999999	0	0	1	2	-1	0	0	0	0	0	0	0	0	0	0	0	0	0		776	150	0	16384	0	0	7000	0	2500	0	500	0	0	0	신캐릭터 추가! 크리스마스 한정 캐릭터 GET 찬스!♥자세한 내용은 배너를 클릭!
20221219	1100	20221221	1100	111000	999999	0	0	1	3	-1	0	0	0	0	0	0	0	0	0	0	0	0	0		-1	0	0	0	0	0	0	0	0	0	0	0	0	0		753	150	0	16384	0	0	6970	0	2500	0	500	0	30	0	초생명체 특효를 가진 캐릭터 '유랑극단 캐러셀즈' 참전!★자세한 내용은 배너를 클릭!
20221221	1100	20221223	1100	111000	999999	0	0	1	3	-1	0	0	0	0	0	0	0	0	0	0	0	0	0		-1	0	0	0	0	0	0	0	0	0	0	0	0	0		679	150	0	16384	0	0	6970	0	2500	0	500	0	30	0	떠있는 적과 악마에 강한 캐릭터 '타락 천신 루시퍼' 참전!★자세한 내용은 배너를 클릭!
20221223	1100	20221226	1100	111000	999999	0	0	1	1	765	150	0	0	0	0	7000	0	2500	0	500	1	0	0	열혈 캐릭터 대 집결! '열혈경파 쿠니오군' 레어 뽑기가 새롭게 등장!★자세한 내용은 배너를 클릭!★
20221223	1100	20221226	1100	111000	999999	0	0	1	2	-1	0	0	0	0	0	0	0	0	0	0	0	0	0		776	150	0	0	0	0	7000	0	2500	0	500	1	0	0	신캐릭터 추가! 크리스마스 한정 캐릭터 GET 찬스!♥자세한 내용은 배너를 클릭!
20221223	1100	20221226	1100	111000	999999	0	0	1	3	-1	0	0	0	0	0	0	0	0	0	0	0	0	0		-1	0	0	0	0	0	0	0	0	0	0	0	0	0		626	150	0	0	0	0	6970	0	2500	0	500	1	30	0	베리어도 쉴드도 파괴하는 캐릭터  '오코루가' 참전!★자세한 내용은 배너를 클릭!!
[end]
