[start]
20180109	1100	20300101	1100	50700	999999	0	0	0	1	0	0	0	0	10000	0	0	0	0	0	0	0	0	0	
20160101	0	20300101	0	50700	999999	0	0	1	1	0	150	0	0	0	0	7500	0	2000	0	500	0	0	0	只有從這個轉蛋才能拿到的限定角色等著你喔！
20170101	0	20300101	0	80200	999999	0	0	2	3	0	30	0	0	0	0	7500	0	2000	0	500	0	0	0		0	30	0	0	0	0	7500	0	2000	0	500	0	0	0		0	30	0	0	0	0	7500	0	2000	0	500	0	0	0	
20170101	0	20300101	0	80200	999999	0	0	3	3	0	75	0	0	0	0	7500	0	2000	0	500	0	0	0		0	75	0	0	0	0	7500	0	2000	0	500	0	0	0		0	75	0	0	0	0	7500	0	2000	0	500	0	0	0	
20181013	1100	20300101	1100	70400	999999	0	0	1	4	-1	150	0	0	0	0	7500	0	2000	0	500	0	0	0		-1	150	0	0	0	0	7500	0	2000	0	500	0	0	0		-1	150	0	0	0	0	7500	0	2000	0	500	0	0	0		320	0	0	0	0	0	0	0	0	0	10000	0	0	0	必出超激稀有角色的白金轉蛋！快來獲得心儀的貓咪吧！
20190801	1100	20190812	1100	80700	999999	0	0	0	2	-1	150	0	0	0	0	7500	0	2000	0	500	0	0	0		5	0	0	2	500	0	7000	0	2000	0	500	0	0	0	限時開放★高機率獲得各種貓眼石的活動限定特別轉蛋！
20190804	1100	20190807	1100	80700	999999	0	0	1	1	369	150	0	0	0	0	6970	0	2500	0	500	1	30	0	具備各種獨特能力的貓咪們！還有新神秘角色！？★11連轉超激確定活動中！
20190807	1100	20190810	1100	80700	999999	0	0	1	1	330	150	0	0	0	0	6970	0	2500	0	500	1	30	0	掃黑專家的戰國武將來了！神秘角色新登場！？★11連轉超激確定活動中！
20190807	1100	20190812	1100	80700	999999	0	0	1	2	-1	150	0	0	0	0	7500	0	2000	0	500	0	0	0		389	150	0	0	0	0	7000	0	2500	0	500	1	0	0	小小瓦爾基麗貓也會登場！特別仕樣轉蛋限定！★11連轉超激確定活動中！
20190810	1100	20190812	1100	80700	999999	0	0	1	1	377	150	0	0	0	0	6970	0	2500	0	500	1	30	0	貓咪軍團珍藏的超級武器！神秘角色新登場！？★11連轉超激確定活動中！
20190812	1100	20190827	0	80700	999999	0	0	0	3	-1	150	0	0	0	0	7500	0	2000	0	500	0	0	0		-1	150	0	0	0	0	7500	0	2000	0	500	0	0	0		30	0	0	0	0	0	7400	0	2100	0	500	0	0	0	限時開放！收集小小貓咪的好機會！★開放到2019年8月26日！
20190812	1100	20190814	1100	80700	999999	0	0	1	1	362	150	0	3688	0	0	6970	0	2500	0	500	0	30	0	進化後大變身的古代勇者們！神秘角色新登場！？★點圖可以看詳細內容喔！
20190812	1100	20190826	1100	80700	999999	0	0	1	2	-1	150	0	3688	0	0	7500	0	2000	0	500	0	30	0		395	150	0	3688	0	0	7000	0	2500	0	500	0	0	0	新角色登場！獲得各種夏日裝扮的角色吧！★點圖可以看詳細內容喔！
20190814	1100	20190816	1100	80700	999999	0	0	1	1	336	150	0	3688	0	0	6970	0	2500	0	500	0	30	0	破壞力強大，勇猛可靠的龍皇們降臨啦！★點圖可以看詳細內容喔！
20190816	1100	20190902	0	80700	999999	0	0	0	4	-1	150	0	0	0	0	7500	0	2000	0	500	0	0	0		-1	150	0	0	0	0	7500	0	2000	0	500	0	0	0		-1	150	0	0	0	0	7500	0	2000	0	500	0	0	0		29	0	300	0	0	0	5100	0	3500	0	1400	0	0	0	限時開放★能夠獲得喵力達與XP的特別轉蛋！★9月1日為止！
20190816	1100	20190819	1100	80700	999999	0	0	1	1	361	150	0	3688	0	0	6500	0	2600	0	900	0	0	0	超強的限定角色「影傑漆黑達太貓」登場！★超激稀有角色出現率大幅上升！
20190819	1100	20190826	1100	80700	999999	0	0	0	2	-1	0	0	0	0	0	7500	0	2000	0	500	0	0	0		3	0	300	0	400	0	2000	0	7000	0	600	0	0	0	限時開放★有機會入手貓薄荷的活動限定特別轉蛋！
20190819	1100	20190821	1100	80700	999999	0	0	1	1	273	150	0	3692	0	0	7000	0	2500	0	500	0	0	0	削鐵如泥！有效對抗鋼鐵敵人的角色大集合！★好康轉蛋活動中！
20190821	1100	20190824	1100	80700	999999	0	0	1	1	372	150	0	3688	0	0	6970	0	2500	0	500	1	30	0	噁心又可愛的神秘生物！神秘角色新登場！？★點圖可以看詳細內容喔！
20190821	1100	20190826	1100	80700	999999	0	0	1	2	-1	150	0	3688	0	0	7500	0	2000	0	500	0	30	0		395	150	0	3688	0	0	7000	0	2500	0	500	1	0	0	新角色登場！獲得各種夏日裝扮的角色吧！★11連轉超激確定活動中！
20190824	1100	20190826	1100	80700	999999	0	0	1	1	384	150	0	3688	0	0	6970	0	2500	0	500	1	30	0	正義的暗黑英雄，貓咪軍團的異星戰士剋星！★點圖可以看詳細內容喔！
20190826	1100	20190902	1100	80700	999999	0	0	0	2	-1	0	0	0	0	0	7500	0	2000	0	500	0	0	0		5	0	0	2	500	0	7000	0	2000	0	500	0	0	0	限時開放★高機率獲得各種貓眼石的活動限定特別轉蛋！
20190826	1100	20190829	1100	80700	999999	0	0	1	1	245	150	0	4	0	0	7000	0	2500	0	500	0	0	0	紅色破壞者轉蛋限定角色「貓飯拳派派」登場！★好康轉蛋活動中！
20190829	1100	20190901	1100	80700	999999	0	0	1	1	246	150	0	4	0	0	7000	0	2500	0	500	0	0	0	專打飄浮敵人！以「閃電機兵飛雷」爲首的飄浮破壞者轉蛋！★好康轉蛋活動中！
[end]
