[start]
20180109	1100	20300101	1100	50700	999999	0	0	0	1	0	0	0	0	10000	0	0	0	0	0	0	0	0	0	
20160101	0	20300101	0	50700	999999	0	0	1	1	0	150	0	0	0	0	7500	0	2000	0	500	0	0	0	只有從這個轉蛋才能拿到的限定角色等著你喔！
20170101	0	20300101	0	50700	999999	0	0	2	2	0	30	0	0	0	0	7500	0	2000	0	500	0	0	0		0	30	0	0	0	0	7500	0	2000	0	500	0	0	0	
20170101	0	20300101	0	50700	999999	0	0	3	2	0	75	0	0	0	0	7500	0	2000	0	500	0	0	0		0	75	0	0	0	0	7500	0	2000	0	500	0	0	0	
20181013	1100	20300101	1100	70400	999999	0	0	1	4	-1	150	0	0	0	0	7500	0	2000	0	500	0	0	0		-1	150	0	0	0	0	7500	0	2000	0	500	0	0	0		-1	150	0	0	0	0	7500	0	2000	0	500	0	0	0		320	0	0	0	0	0	0	0	0	0	10000	0	0	0	必出超激稀有角色的白金轉蛋！快來獲得心儀的貓咪吧！
20190513	1100	20190520	1100	80400	999999	0	0	0	2	-1	150	0	0	0	0	7500	0	2000	0	500	0	0	0		5	0	0	2	500	0	7000	0	2000	0	500	0	0	0	限時開放★高機率獲得各種貓眼石的活動限定特別轉蛋！
20190515	1100	20190517	1100	80400	999999	0	0	1	1	333	150	0	0	0	0	6970	0	2500	0	500	0	30	0	可愛有活力的美少女們！神秘角色新登場！？★點圖可以看詳細內容喔！
20190516	1100	20190602	0	80400	999999	0	0	0	3	-1	150	0	0	0	0	7500	0	2000	0	500	0	0	0		-1	150	0	0	0	0	7500	0	2000	0	500	0	0	0		24	0	300	0	0	0	5100	0	3500	0	1400	0	0	0	限時開放★能夠獲得喵力達與XP的特別轉蛋！★6月1日為止！
20190517	1100	20190520	1100	80400	999999	0	0	1	1	361	150	0	0	0	0	6500	0	2600	0	900	0	0	0	超強的限定角色「影傑漆黑達太貓」登場！★超激稀有角色出現率大幅上升！
20190520	1100	20190604	0	80500	999999	0	0	0	2	-1	150	0	0	0	0	7500	0	2000	0	500	0	0	0		25	0	0	0	0	0	7400	0	2100	0	500	0	0	0	限時開放！收集小小貓咪的好機會！★開放到2019年6月3日！
20190520	1100	20190522	1100	80500	999999	0	0	1	1	369	150	0	3608	0	0	6970	0	2500	0	500	0	30	0	具備各種獨特能力的貓咪們！還有新神秘角色！？★點圖可以看詳細內容喔！
20190522	1100	20190524	1100	80500	999999	0	0	1	1	330	150	0	3608	0	0	6970	0	2500	0	500	0	30	0	掃黑專家的戰國武將來了！神秘角色新登場！？★點圖可以看詳細內容喔！
20190524	1100	20190527	1100	80500	999999	0	0	1	1	380	150	0	3608	0	0	6970	0	2500	0	500	1	30	0	來自宇宙盡頭的各種精靈們！還有新神秘角色！？★點圖可以看詳細內容喔！
20190527	1100	20190610	1100	80501	999999	0	0	1	1	318	150	0	3608	0	0	7000	0	2500	0	500	0	0	0	劇場版「魔法少女☆小圓」合作轉蛋登場！★點圖可以看詳細內容喔！
20190527	1100	20190529	1100	80500	999999	0	0	1	2	-1	150	0	0	0	0	7500	0	2000	0	500	0	0	0		377	150	0	3608	0	0	6970	0	2500	0	500	0	30	0	貓咪軍團珍藏的超級武器！神秘角色新登場！？★點圖可以看詳細內容喔！
20190529	1100	20190601	1100	80500	999999	0	0	1	2	-1	150	0	0	0	0	7500	0	2000	0	500	0	0	0		372	150	0	3608	0	0	6970	0	2500	0	500	0	30	0	噁心又可愛的神秘生物！神秘角色新登場！？★點圖可以看詳細內容喔！
20190601	1100	20190604	1100	80500	999999	0	0	1	2	-1	150	0	0	0	0	7500	0	2000	0	500	0	0	0		360	150	0	3608	0	0	6500	0	2600	0	900	0	0	0	超強的限定角色「幼傑達太貓」登場！★超激出現率大幅上升！
20190603	1100	20190610	1100	80501	999999	0	0	1	1	318	150	0	0	0	0	7000	0	2500	0	500	0	0	0	劇場版「魔法少女☆小圓」合作轉蛋登場！★點圖可以看詳細內容喔！
20190603	1100	20190604	1100	80500	999999	0	0	1	2	-1	150	0	0	0	0	7500	0	2000	0	500	0	0	0		360	150	0	0	0	0	6500	0	2600	0	900	0	0	0	超強的限定角色「幼傑達太貓」登場！★超激出現率大幅上升！
[end]
