[start]
20180109	1100	20300101	1100	50700	999999	0	0	0	1	0	0	0	0	10000	0	0	0	0	0	0	0	0	0	
20160101	0	20300101	0	50700	999999	0	0	1	1	0	150	0	0	0	0	7500	0	2000	0	500	0	0	0	只有從這個轉蛋才能拿到的限定角色等著你喔！
20170101	0	20300101	0	50700	999999	0	0	2	2	0	30	0	0	0	0	7500	0	2000	0	500	0	0	0		0	30	0	0	0	0	7500	0	2000	0	500	0	0	0	
20170101	0	20300101	0	50700	999999	0	0	3	2	0	75	0	0	0	0	7500	0	2000	0	500	0	0	0		0	75	0	0	0	0	7500	0	2000	0	500	0	0	0	
20181013	1100	20300101	1100	70400	999999	0	0	1	4	-1	150	0	0	0	0	7500	0	2000	0	500	0	0	0		-1	150	0	0	0	0	7500	0	2000	0	500	0	0	0		-1	150	0	0	0	0	7500	0	2000	0	500	0	0	0		320	0	0	0	0	0	0	0	0	0	10000	0	0	0	必出超激稀有角色的白金轉蛋！快來獲得心儀的貓咪吧！
20190316	1100	20190402	0	80202	999999	0	0	0	2	-1	0	300	0	0	0	5100	0	3500	0	1400	0	0	0		21	0	300	0	0	0	5100	0	3500	0	1400	0	0	0	限時開放★能夠獲得喵力達與XP的特別轉蛋！★4月1日為止！
20190318	1100	20190401	1100	80300	999999	0	0	1	1	375	150	0	0	0	0	7000	0	2500	0	500	0	0	0	『活下去！曼波魚！』合作轉蛋登場！★點圖可以看詳細內容喔！
20190325	1100	20190401	1100	80300	999999	0	0	1	1	376	150	0	0	0	0	7000	0	2500	0	500	0	0	0	『活下去！曼波魚！』合作轉蛋登場！★點圖可以看詳細內容喔！
20190327	1100	20190401	1100	80300	999999	0	0	1	1	376	150	0	0	0	0	7000	0	2500	0	500	1	0	0	【倒數計時】『活下去！曼波魚！』合作轉蛋登場！★11連轉超激確定活動中！
20190327	1100	20190329	1100	80300	999999	0	0	1	2	-1	150	0	0	0	0	7500	0	2000	0	500	0	0	0		333	150	0	0	0	0	6970	0	2500	0	500	1	30	0	可愛有活力的美少女們！神秘角色新登場！？★點圖可以看詳細內容喔！
20190329	1100	20190401	1100	80300	999999	0	0	1	2	-1	150	0	0	0	0	7500	0	2000	0	500	0	0	0		342	150	0	0	0	0	7000	0	2500	0	500	1	0	0	異星戰士的剋星・黑暗英雄！★11連轉超激確定活動中！
20190401	1100	20190404	1100	80300	999999	0	0	1	1	360	150	0	0	0	0	6500	0	2600	0	900	0	0	0	超強的限定角色「幼傑達太貓」登場！★超激出現率大幅上升！
20190404	1100	20190406	1100	80300	999999	0	0	1	1	345	150	0	0	0	0	7000	0	2500	0	500	0	0	0	貓咪世界的眾神，集結於此！★點圖可以看詳細內容喔！
20190406	1100	20190408	1100	80300	999999	0	0	1	1	246	150	0	4	0	0	7000	0	2500	0	500	0	0	0	專打飄浮敵人！以「閃電機兵飛雷」爲首的飄浮破壞者轉蛋！★好康轉蛋活動中！
20190408	1100	20190410	1100	80300	999999	0	0	1	1	336	150	0	0	0	0	6970	0	2500	0	500	0	30	0	破壞力強大，勇猛可靠的龍皇們降臨啦！★點圖可以看詳細內容喔！
20190408	1100	20190422	1100	80300	999999	0	0	1	2	-1	150	0	0	0	0	7500	0	2000	0	500	0	0	0		259	150	0	0	0	0	7000	0	2500	0	500	0	0	0	春季限定！快來獲得可愛的復活節貓咪吧！★點圖可以看詳細內容喔！
20190410	1100	20190412	1100	80300	999999	0	0	1	1	351	150	0	0	0	0	7000	0	2500	0	500	0	0	0	來自宇宙盡頭的各種精靈們！★點圖可以看詳細內容喔！
20190412	1100	20190415	1100	80300	999999	0	0	1	1	361	150	0	0	0	0	6500	0	2600	0	900	0	0	0	超強的限定角色「影傑漆黑達太貓」登場！★超激稀有角色出現率大幅上升！
[end]
