[start]
20180109	1100	20300101	1100	50700	999999	0	0	0	1	0	0	0	0	10000	0	0	0	0	0	0	0	0	0	
20170101	0	20300101	0	80200	999999	0	0	2	3	0	30	0	0	0	0	7500	0	2000	0	500	0	0	0		0	30	0	0	0	0	7500	0	2000	0	500	0	0	0		0	30	0	0	0	0	7500	0	2000	0	500	0	0	0	
20170101	0	20300101	0	80200	999999	0	0	3	3	0	75	0	0	0	0	7500	0	2000	0	500	0	0	0		0	75	0	0	0	0	7500	0	2000	0	500	0	0	0		0	75	0	0	0	0	7500	0	2000	0	500	0	0	0	
20201009	1100	20300101	1100	90900	999999	0	0	1	4	-1	0	0	0	0	0	0	0	0	0	0	0	0	0		-1	0	0	0	0	0	0	0	0	0	0	0	0	0		-1	0	0	0	0	0	0	0	0	0	0	0	0	0		525	0	0	0	0	0	0	0	0	0	10000	0	0	0	必出超激稀有角色的白金轉蛋！快來獲得心儀的貓咪吧！
20201113	1100	20300101	1100	91000	999999	0	0	1	4	-1	0	0	0	0	0	0	0	0	0	0	0	0	0		-1	0	0	0	0	0	0	0	0	0	0	0	0	0		-1	0	0	0	0	0	0	0	0	0	0	0	0	0		543	0	0	0	0	0	0	0	0	0	10000	0	0	0	必出超激稀有角色的白金轉蛋！快來獲得心儀的貓咪吧！
20210212	000	20300101	1100	100200	999999	0	0	1	4	-1	0	0	0	0	0	0	0	0	0	0	0	0	0		-1	0	0	0	0	0	0	0	0	0	0	0	0	0		-1	0	0	0	0	0	0	0	0	0	0	0	0	0		556	0	0	0	0	0	0	0	0	0	10000	0	0	0	必出超激稀有角色的白金轉蛋！快來獲得心儀的貓咪吧！
20210503	1100	20300101	0	100400	999999	0	0	0	3	-1	0	0	0	0	0	0	0	0	0	0	0	0	0		-1	0	0	0	0	0	0	0	0	0	0	0	0	0		62	0	0	0	0	0	7400	0	2100	0	500	0	0	0	限時開放！收集小小貓咪的好機會！
20210416	1100	20300101	0	100400	999999	0	0	0	4	-1	0	0	0	0	0	0	0	0	0	0	0	0	0		-1	0	0	0	0	0	0	0	0	0	0	0	0	0		-1	0	0	0	0	0	0	0	0	0	0	0	0	0		63	0	300	0	0	0	5100	0	3500	0	1400	0	0	0	限時開放★能夠獲得喵力達與XP的特別轉蛋！
20210507	1100	20300101	1100	100400	999999	0	0	1	4	-1	0	0	0	0	0	0	0	0	0	0	0	0	0		-1	0	0	0	0	0	0	0	0	0	0	0	0	0		-1	0	0	0	0	0	0	0	0	0	0	0	0	0		577	0	0	0	0	0	0	0	0	0	10000	0	0	0	必出超激稀有角色的白金轉蛋！快來獲得心儀的貓咪吧！
20210709	000	20300101	1100	100600	999999	0	0	1	4	-1	0	0	0	0	0	0	0	0	0	0	0	0	0		-1	0	0	0	0	0	0	0	0	0	0	0	0	0		-1	0	0	0	0	0	0	0	0	0	0	0	0	0		592	0	0	0	0	0	0	0	0	0	10000	0	0	0	必出超激稀有角色的白金轉蛋！快來獲得心儀的貓咪吧！
20210728	1100	20210730	1100	100700	999999	0	0	1	3	-1	0	0	0	0	0	0	0	0	0	0	0	0	0		-1	0	0	0	0	0	0	0	0	0	0	0	0	0		497	150	0	0	0	0	6970	0	2500	0	500	0	30	0	貓咪世界的偉大神們，都齊聚在此啦！★點圖確認詳細吧!!
20210730	1100	20210802	1100	100700	999999	0	0	1	3	-1	0	0	0	0	0	0	0	0	0	0	0	0	0		-1	0	0	0	0	0	0	0	0	0	0	0	0	0		575	150	0	0	0	0	6500	0	2600	0	900	0	0	0	新角色「幼獸加爾」參戰！★超激稀有出現率超上升的「超貓祭」進行中!!
20210802	1100	20210804	1100	100700	999999	0	0	1	1	451	150	0	4	0	0	7000	0	2500	0	500	0	0	0	對紅色敵人就靠這組！限定角色登場的特別版轉蛋！好康轉蛋活動中！	0
20210802	1100	20210804	1100	100700	999999	0	0	1	2	-1	0	0	0	0	0	0	0	0	0	0	0	0	0		452	150	0	4	0	0	7000	0	2500	0	500	0	0	0	對飄浮敵人有強大效果的「飄浮破壞者」來了！好康轉蛋活動中！	0	0
20210804	1100	20210806	1100	100700	999999	0	0	1	1	453	150	0	4	0	0	7000	0	2500	0	500	0	0	0	對鋼鐵敵人效果絕大呀！限定角色登場的特別版轉蛋！好康轉蛋活動中！	0
20210804	1100	20210806	1100	100700	999999	0	0	1	2	-1	0	0	0	0	0	0	0	0	0	0	0	0	0		523	150	0	4	0	0	7000	0	2500	0	500	0	0	0	對發射波動敵人超好用的「波動破壞者」登場！★好康轉蛋活動中！	0	0
20210806	1100	20210809	1100	100700	999999	0	0	1	3	-1	0	0	0	0	0	0	0	0	0	0	0	0	0		-1	0	0	0	0	0	0	0	0	0	0	0	0	0		487	150	0	0	0	0	6970	0	2500	0	500	0	30	0	握有正義與黑暗之力，貓咪軍團的救世主來了！★點圖確認詳細吧!!	0	0	0
20210809	1100	20210811	1100	100700	999999	0	0	1	3	-1	0	0	0	0	0	0	0	0	0	0	0	0	0		-1	0	0	0	0	0	0	0	0	0	0	0	0	0		475	150	0	0	0	0	6970	0	2500	0	500	0	30	0	貓咪世界最大級的驚人進化樣貌之古代勇者們！★點圖確認詳細吧!!	0	0	0
20210811	1100	20210813	1100	100700	999999	0	0	1	3	-1	0	0	0	0	0	0	0	0	0	0	0	0	0		-1	0	0	0	0	0	0	0	0	0	0	0	0	0		572	150	0	0	0	0	6970	0	2500	0	500	0	30	0	新角色「空中商店・探險家」參戰！貓咪軍團的超級兵器呀！★點圖可以確認詳細喔!!	0	0	0
20210813	1100	20210816	1100	100700	999999	0	0	1	1	590	150	0	0	0	0	6500	0	2600	0	900	0	0	0	新角色「黑獸加迪」參戰！★超激稀有出現率超上升的「特級貓咪祭」進行中!!	0
[end]
