[start]
20180109	1100	20300101	1100	50700	999999	0	0	0	1	0	0	0	0	10000	0	0	0	0	0	0	0	0	0	
20170101	0	20300101	0	80200	999999	0	0	2	3	0	30	0	0	0	0	7500	0	2000	0	500	0	0	0		0	30	0	0	0	0	7500	0	2000	0	500	0	0	0		0	30	0	0	0	0	7500	0	2000	0	500	0	0	0	
20170101	0	20300101	0	80200	999999	0	0	3	3	0	75	0	0	0	0	7500	0	2000	0	500	0	0	0		0	75	0	0	0	0	7500	0	2000	0	500	0	0	0		0	75	0	0	0	0	7500	0	2000	0	500	0	0	0	
20201009	1100	20300101	1100	90900	999999	0	0	1	4	-1	0	0	0	0	0	0	0	0	0	0	0	0	0		-1	0	0	0	0	0	0	0	0	0	0	0	0	0		-1	0	0	0	0	0	0	0	0	0	0	0	0	0		525	0	0	0	0	0	0	0	0	0	10000	0	0	0	必出超激稀有角色的白金轉蛋！快來獲得心儀的貓咪吧！
20201113	1100	20300101	1100	91000	999999	0	0	1	4	-1	0	0	0	0	0	0	0	0	0	0	0	0	0		-1	0	0	0	0	0	0	0	0	0	0	0	0	0		-1	0	0	0	0	0	0	0	0	0	0	0	0	0		543	0	0	0	0	0	0	0	0	0	10000	0	0	0	必出超激稀有角色的白金轉蛋！快來獲得心儀的貓咪吧！
20210212	000	20300101	1100	100200	999999	0	0	1	4	-1	0	0	0	0	0	0	0	0	0	0	0	0	0		-1	0	0	0	0	0	0	0	0	0	0	0	0	0		-1	0	0	0	0	0	0	0	0	0	0	0	0	0		556	0	0	0	0	0	0	0	0	0	10000	0	0	0	必出超激稀有角色的白金轉蛋！快來獲得心儀的貓咪吧！
20210503	1100	20300101	0	100400	999999	0	0	0	3	-1	0	0	0	0	0	0	0	0	0	0	0	0	0		-1	0	0	0	0	0	0	0	0	0	0	0	0	0		62	0	0	0	0	0	7400	0	2100	0	500	0	0	0	限時開放！收集小小貓咪的好機會！
20210416	1100	20300101	0	100400	999999	0	0	0	4	-1	0	0	0	0	0	0	0	0	0	0	0	0	0		-1	0	0	0	0	0	0	0	0	0	0	0	0	0		-1	0	0	0	0	0	0	0	0	0	0	0	0	0		63	0	300	0	0	0	5100	0	3500	0	1400	0	0	0	限時開放★能夠獲得喵力達與XP的特別轉蛋！
20210507	1100	20300101	1100	100400	999999	0	0	1	4	-1	0	0	0	0	0	0	0	0	0	0	0	0	0		-1	0	0	0	0	0	0	0	0	0	0	0	0	0		-1	0	0	0	0	0	0	0	0	0	0	0	0	0		577	0	0	0	0	0	0	0	0	0	10000	0	0	0	必出超激稀有角色的白金轉蛋！快來獲得心儀的貓咪吧！
20210709	000	20300101	1100	100600	999999	0	0	1	4	-1	0	0	0	0	0	0	0	0	0	0	0	0	0		-1	0	0	0	0	0	0	0	0	0	0	0	0	0		-1	0	0	0	0	0	0	0	0	0	0	0	0	0		592	0	0	0	0	0	0	0	0	0	10000	0	0	0	必出超激稀有角色的白金轉蛋！快來獲得心儀的貓咪吧！
20210809	1100	20210811	1100	100700	999999	0	0	1	3	-1	0	0	0	0	0	0	0	0	0	0	0	0	0		-1	0	0	0	0	0	0	0	0	0	0	0	0	0		475	150	0	0	0	0	6970	0	2500	0	500	0	30	0	貓咪世界最大級的驚人進化樣貌之古代勇者們！★點圖確認詳細吧!!	0	0	0
20210811	1100	20210813	1100	100700	999999	0	0	1	3	-1	0	0	0	0	0	0	0	0	0	0	0	0	0		-1	0	0	0	0	0	0	0	0	0	0	0	0	0		572	150	0	0	0	0	6970	0	2500	0	500	0	30	0	新角色「空中商店・探險家」參戰！貓咪軍團的超級兵器呀！★點圖可以確認詳細喔!!	0	0	0
20210813	1100	20210816	1100	100700	999999	0	0	1	1	590	150	0	0	0	0	6500	0	2600	0	900	0	0	0	新角色「黑獸加迪」參戰！★超激稀有出現率超上升的「特級貓咪祭」進行中!!	0
20210816	1100	20210823	1100	100600	999999	0	0	0	2	-1	0	0	0	0	0	0	0	0	0	0	0	0	0		5	0	0	2	500	0	7000	0	2000	0	500	0	0	0	限時開放★高機率獲得各種貓眼石的活動限定特別轉蛋！
20210823	1100	20210830	1100	100600	999999	0	0	0	2	-1	0	0	0	0	0	0	0	0	0	0	0	0	0		3	0	300	0	400	0	2000	0	7000	0	600	0	0	0	限時開放★有機會入手貓薄荷的活動限定特別轉蛋！
20210816	1100	20210818	000	100700	999999	0	0	1	1	430	150	0	0	0	0	6440	0	2500	0	1000	0	60	0	★超激・傳說稀有出現率2倍！★消滅來擾亂的壞傢伙！充滿活動又可愛的電腦少女們！
20210816	1100	20210818	000	100700	999999	0	0	1	2	-1	0	0	0	0	0	0	0	0	0	0	0	0	0		427	150	0	0	0	0	6440	0	2500	0	1000	0	60	0	★超激・傳說稀有出現率2倍！★對上黑色敵人超有效！擁有強力效果的戰國武將們！
20210818	000	20210820	000	100700	999999	0	0	1	1	585	150	0	0	0	0	6440	0	2500	0	1000	0	60	0	★超激・傳說稀有出現率2倍！★從異世界召喚來的愉快美少女們！
20210818	000	20210820	000	100700	999999	0	0	1	2	-1	0	0	0	0	0	0	0	0	0	0	0	0	0		433	150	0	0	0	0	6440	0	2500	0	1000	0	60	0	★超激・傳說稀有出現率2倍！★散發壓倒性的存在感，快帶走這些強力龍族吧！
20210820	000	20210822	000	100700	999999	0	0	1	1	424	150	0	0	0	0	6440	0	2500	0	1000	0	60	0	★超激・傳說稀有出現率2倍！★花樣多端且造型豐富的世界第一即戰力貓咪們！
20210820	000	20210822	000	100700	999999	0	0	1	2	-1	0	0	0	0	0	0	0	0	0	0	0	0	0		517	150	0	0	0	0	6440	0	2500	0	1000	0	60	0	★超激・傳說稀有出現率2倍！★是貓是妖沒人知道！就是群充滿謎的怪異可愛生命體！
20210822	000	20210824	000	100700	999999	0	0	1	1	497	150	0	0	0	0	6440	0	2500	0	1000	0	60	0	★超激・傳說稀有出現率2倍！★正集結於此！貓咪世界中偉大的神們來也！
20210822	000	20210824	000	100700	999999	0	0	1	2	-1	0	0	0	0	0	0	0	0	0	0	0	0	0		487	150	0	0	0	0	6440	0	2500	0	1000	0	60	0	★超激・傳說稀有出現率2倍！★結合正義與黑暗的力量，無法言喻的貓咪軍團救世主！
20210824	000	20210826	000	100700	999999	0	0	1	1	475	150	0	0	0	0	6440	0	2500	0	1000	0	60	0	★超激・傳說稀有出現率2倍！★貓咪世界中，進化後呈現驚人形態的古代勇者們！
20210824	000	20210826	000	100700	999999	0	0	1	2	-1	0	0	0	0	0	0	0	0	0	0	0	0	0		538	150	0	0	0	0	6440	0	2500	0	1000	0	60	0	★超激・傳說稀有出現率2倍！★來自宇宙的盡頭！帶有個性又活潑的精靈們！
20210826	000	20210827	1100	100700	999999	0	0	1	1	572	150	0	0	0	0	6440	0	2500	0	1000	0	60	0	★超激・傳說稀有出現率2倍！★可以打爆不死生物的貓咪軍團超級兵器在此！
20210827	1100	20210830	1100	100700	999999	0	0	1	1	602	150	0	16384	0	0	6940	0	2500	0	500	0	60	0	含限定超激稀有「貓咪王女」的女角色為主新轉蛋！且傳說稀有角色出現率2倍！
20210827	1100	20300101	1100	100700	999999	0	0	1	4	-1	0	0	0	0	0	0	0	0	0	0	0	0	0		-1	0	0	0	0	0	0	0	0	0	0	0	0	0		-1	0	0	0	0	0	0	0	0	0	0	0	0	0		603	0	0	0	0	0	0	0	0	0	10000	0	0	0	必出超激稀有角色的白金轉蛋！快來獲得心儀的貓咪吧！
[end]
