[start]
20180109	1100	20300101	0	60700	999999	0	0	0	1	0	0	0	0	10000	0	0	0	0	0	0	0	0	0	
20160101	0	20300101	0	50700	999999	0	0	1	1	0	150	0	0	0	0	7500	0	2000	0	500	0	0	0	ここでしか手に入らないキャラクターが必ず出現！しかもレアキャラ以上確定!!
20180101	0	20300101	0	80200	999999	0	0	2	3	33	30	0	0	0	0	7500	0	2000	0	500	0	0	0		23	30	0	0	0	0	7500	0	2000	0	500	0	0	0		0	30	0	0	0	0	7500	0	2000	0	500	0	0	0	
20180101	0	20300101	0	80200	999999	0	0	3	3	33	75	0	0	0	0	7500	0	2000	0	500	0	0	0		23	75	0	0	0	0	7500	0	2000	0	500	0	0	0		0	75	0	0	0	0	7500	0	2000	0	500	0	0	0	
20200710	1100	20300101	000	90700	999999	0	0	1	4	-1	0	0	0	0	0	0	0	0	0	0	0	0	0		-1	0	0	0	0	0	0	0	0	0	0	0	0	0		-1	0	0	0	0	0	0	0	0	0	0	0	0	0		525	0	0	0	0	0	0	0	0	0	10000	0	0	0	超激レアのキャラクターが必ず１体手に入る「プラチナガチャ」！
20201009	1100	20300101	000	91000	999999	0	0	1	4	-1	0	0	0	0	0	0	0	0	0	0	0	0	0		-1	0	0	0	0	0	0	0	0	0	0	0	0	0		-1	0	0	0	0	0	0	0	0	0	0	0	0	0		543	0	0	0	0	0	0	0	0	0	10000	0	0	0	超激レアのキャラクターが必ず１体手に入る「プラチナガチャ」！
20201016	1100	20201101	2359	91000	999999	0	0	0	4	-1	0	0	0	0	0	0	0	0	0	0	0	0	0		-1	0	0	0	0	0	0	0	0	0	0	0	0	0		-1	0	0	0	0	0	0	0	0	0	0	0	0	0		52	0	300	0	0	0	5100	0	3500	0	1400	0	0	0	【期間限定】ネコビタンとXPが手に入る特別仕様ガチャ！★11月1日まで！
20201016	1100	20201030	1100	91000	999999	0	0	1	2	-1	0	0	0	0	0	0	0	0	0	0	0	0	0		414	150	0	0	0	0	7000	0	2500	0	500	0	0	0	メルクストーリアのキャラだけが登場する特別ガチャ！★詳細はバナーをタップ!!
20201019	1100	20201030	1100	91000	999999	0	0	1	1	414	150	0	0	0	0	7000	0	2500	0	500	0	0	0	メルクストーリアのキャラだけが登場する特別ガチャ！★詳細はバナーをタップ!!
20201019	1100	20201101	1100	91000	999999	0	0	1	2	-1	0	0	0	0	0	0	0	0	0	0	0	0	0		544	150	0	0	0	0	7000	0	2500	0	500	0	0	0	新キャラ追加！ハロウィン限定のキャラクターをGET！★詳細はバナーをタップ!!
20201026	1100	20201030	1100	81000	999999	0	0	1	1	414	150	0	0	0	0	7000	0	2500	0	500	1	0	0	【終了間近】『メルクストーリア』キャラ限定コラボガチャ！★11連で超激レア確定!!
20201026	1100	20201101	1100	91000	999999	0	0	1	2	-1	0	0	0	0	0	0	0	0	0	0	0	0	0		544	150	0	0	0	0	7000	0	2500	0	500	1	0	0	新キャラ追加！ハロウィン限定のキャラクターをGET！★詳細はバナーをタップ!!
20201028	1100	20201030	1100	91000	999999	0	0	1	3	-1	0	0	0	0	0	0	0	0	0	0	0	0	0		-1	0	0	0	0	0	0	0	0	0	0	0	0	0		445	150	0	0	0	0	6970	0	2500	0	500	1	30	0	にゃんこ軍団秘蔵の超兵器達！シークレット新参戦！？★詳細はバナーをタップ!!
20201030	1100	20201101	1100	91000	999999	0	0	1	1	544	150	0	0	0	0	7000	0	2500	0	500	1	0	0	新キャラ追加！ハロウィン限定のキャラクターをGET！★詳細はバナーをタップ!!
20201030	1100	20201101	1100	91000	999999	0	0	1	2	-1	0	0	0	0	0	0	0	0	0	0	0	0	0		497	150	0	0	0	0	6970	0	2500	0	500	1	30	0	にゃんこワールドの偉大なる神々、ここに集結！★詳細はバナーをタップ!!
20201101	1100	20201104	1100	91000	999999	0	0	1	1	541	150	0	0	0	0	6500	0	2600	0	900	0	0	0	超激レアキャラが一堂に集結!!★超激レア出現率超アップの「超ネコ祭」開催中!!
20201106	1100	20201120	2359	100000	999999	0	0	0	3	-1	0	0	0	0	0	0	0	0	0	0	0	0	0		-1	0	0	0	0	0	0	0	0	0	0	0	0	0		54	0	0	0	0	0	7400	0	2100	0	500	0	0	0	【期間限定】ちびネコ達が手に入る特別仕様のイベントガチャ！
20201102	1100	20201116	1100	100000	999999	0	0	1	2	-1	0	0	0	0	0	0	0	0	0	0	0	0	0		549	150	0	0	0	0	6970	0	2500	0	500	0	30	0	新キャラ追加！『ストリートファイターV』コラボガチャ！★詳細はバナーをタップ!!
20201104	1100	20201116	1100	100000	999999	0	0	1	1	549	150	0	0	0	0	6970	0	2500	0	500	0	30	0	新キャラ追加！『ストリートファイターV』コラボガチャ！★詳細はバナーをタップ!!
20201106	1100	20201116	1100	100000	999999	0	0	1	1	549	150	0	4072	0	0	6970	0	2500	0	500	0	30	0	新キャラ追加！『ストリートファイターV』コラボガチャ！★詳細はバナーをタップ!!
20201104	1100	20201106	1100	100000	999999	0	0	1	2	-1	0	0	0	0	0	0	0	0	0	0	0	0	0		433	150	0	0	0	0	6970	0	2500	0	500	0	30	0	圧倒的な存在感を放つ、強力なドラゴン達を手に入れよう！★詳細はバナーをタップ!!
20201106	1100	20201108	1100	100000	999999	0	0	1	2	-1	0	0	0	0	0	0	0	0	0	0	0	0	0		538	150	0	4072	0	0	6970	0	2500	0	500	0	30	0	新キャラ「石の精霊ゴロー」参戦！個性的で愉快な精霊達！★詳細はバナーをタップ!!
20201108	1100	20201110	1100	100000	999999	0	0	1	2	-1	0	0	0	0	0	0	0	0	0	0	0	0	0		517	150	0	4072	0	0	6970	0	2500	0	500	0	30	0	新キャラ「オイルガ」参戦！謎だらけのキモかわ生命体！★詳細はバナーをタップ!!
20201110	1100	20201112	1100	100000	999999	0	0	1	2	-1	0	0	0	0	0	0	0	0	0	0	0	0	0		427	150	0	4072	0	0	6970	0	2500	0	500	0	30	0	黒い敵相手に大暴れ！強力な効果を持つ戦国武将達！★詳細はバナーをタップ!!
[end]
