[start]
20180109	1100	20300101	0	60700	999999	0	0	0	1	0	0	0	0	10000	0	0	0	0	0	0	0	0	0	
20160101	0	20300101	0	50700	999999	0	0	1	1	0	150	0	0	0	0	7500	0	2000	0	500	0	0	0	ここでしか手に入らないキャラクターが必ず出現！しかもレアキャラ以上確定!!
20180101	0	20300101	0	80200	999999	0	0	2	3	33	30	0	0	0	0	7500	0	2000	0	500	0	0	0		23	30	0	0	0	0	7500	0	2000	0	500	0	0	0		0	30	0	0	0	0	7500	0	2000	0	500	0	0	0	
20180101	0	20300101	0	80200	999999	0	0	3	3	33	75	0	0	0	0	7500	0	2000	0	500	0	0	0		23	75	0	0	0	0	7500	0	2000	0	500	0	0	0		0	75	0	0	0	0	7500	0	2000	0	500	0	0	0	
20200501	1100	20300101	000	90500	999999	0	0	1	4	-1	0	0	0	0	0	0	0	0	0	0	0	0	0		-1	0	0	0	0	0	0	0	0	0	0	0	0	0		-1	0	0	0	0	0	0	0	0	0	0	0	0	0		510	0	0	0	0	0	0	0	0	0	10000	0	0	0	超激レアのキャラクターが必ず１体手に入る「プラチナガチャ」！
20200613	1100	20300101	000	90600	999999	0	0	1	4	-1	0	0	0	0	0	0	0	0	0	0	0	0	0		-1	0	0	0	0	0	0	0	0	0	0	0	0	0		-1	0	0	0	0	0	0	0	0	0	0	0	0	0		522	0	0	0	0	0	0	0	0	0	10000	0	0	0	超激レアのキャラクターが必ず１体手に入る「プラチナガチャ」！
20200710	1100	20300101	000	90700	999999	0	0	1	4	-1	0	0	0	0	0	0	0	0	0	0	0	0	0		-1	0	0	0	0	0	0	0	0	0	0	0	0	0		-1	0	0	0	0	0	0	0	0	0	0	0	0	0		525	0	0	0	0	0	0	0	0	0	10000	0	0	0	超激レアのキャラクターが必ず１体手に入る「プラチナガチャ」！
20200816	1100	20200901	2359	90800	999999	0	0	0	4	-1	0	0	0	0	0	0	0	0	0	0	0	0	0		-1	0	0	0	0	0	0	0	0	0	0	0	0	0		-1	0	0	0	0	0	0	0	0	0	0	0	0	0		48	0	300	0	0	0	5100	0	3500	0	1400	0	0	0	【期間限定】ネコビタンとXPが手に入る特別仕様ガチャ！★9月1日まで！
20200817	1100	20200824	1100	90800	999999	0	0	0	2	-1	0	0	0	0	0	0	0	0	0	0	0	0	0		5	0	0	2	500	0	7000	0	2000	0	500	0	0	0	高確率でキャッツアイが手に入るイベント限定特別ガチャ！　8月24日11時まで！
20200824	1100	20200830	2359	90800	999999	0	0	0	2	-1	0	0	0	0	0	0	0	0	0	0	0	0	0		3	0	300	0	400	0	2000	0	7000	0	600	0	0	0	高確率でマタタビが手に入るイベント限定特別ガチャ！　8月30日まで！
20200811	1100	20200821	1100	90800	999999	0	0	1	1	532	150	0	0	0	0	7000	0	2500	0	500	0	0	0	【期間限定】新キャラ追加！『初音ミク』コラボガチャ！★詳細はバナーをタップ!!
20200814	1100	20200821	1100	90800	999999	0	0	1	2	-1	0	0	0	0	0	0	0	0	0	0	0	0	0		532	150	0	0	0	0	7000	0	2500	0	500	0	0	0	【期間限定】新キャラ追加！『初音ミク』コラボガチャ！★詳細はバナーをタップ!!
20200817	1100	20200821	1100	90800	999999	0	0	1	1	532	150	0	0	0	0	7000	0	2500	0	500	0	0	0	【終了間近】新キャラ追加！『初音ミク』コラボガチャ！★詳細はバナーをタップ!!
20200817	1100	20200819	1100	90800	999999	0	0	1	2	-1	0	0	0	0	0	0	0	0	0	0	0	0	0		427	150	0	0	0	0	6970	0	2500	0	500	0	30	0	黒い敵相手に大暴れ！強力な効果を持つ戦国武将達！★詳細はバナーをタップ!!
20200819	1100	20200821	1100	90800	999999	0	0	1	2	-1	0	0	0	0	0	0	0	0	0	0	0	0	0		487	150	0	0	0	0	6970	0	2500	0	500	0	30	0	マッドシューター・サキ参戦！正義と闇の力を持つ救世主達！★詳細はバナーをタップ!!
20200821	1100	20200824	1100	90800	999999	0	0	1	1	451	150	0	4	0	0	7000	0	2500	0	500	0	0	0	赤い敵対策はお任せ！限定キャラも登場する特別版！★おまけアップイベント開催中!!
20200821	1100	20200824	1100	90800	999999	0	0	1	2	-1	0	0	0	0	0	0	0	0	0	0	0	0	0		452	150	0	4	0	0	7000	0	2500	0	500	0	0	0	浮いてる敵に対して強力効果の「エアバスターズ」！★おまけアップイベント開催中!!
20200821	1100	20200824	1100	90800	999999	0	0	1	3	-1	0	0	0	0	0	0	0	0	0	0	0	0	0		-1	0	0	0	0	0	0	0	0	0	0	0	0	0		453	150	0	4	0	0	7000	0	2500	0	500	0	0	0	メタルな敵に効果絶大！限定キャラも登場の特別版！★おまけアップイベント開催中!!
20200824	1100	20200826	1100	90800	999999	0	0	1	1	424	150	0	0	0	0	6970	0	2500	0	500	0	30	0	バラエティ豊富な世界一即戦力になるにゃんこ達！★詳細はバナーをタップ!!
20200826	1100	20200828	1100	90800	999999	0	0	1	1	430	150	0	0	0	0	6970	0	2500	0	500	0	30	0	邪魔する敵をやっつける！パワフルでキュートな電脳少女達！★詳細はバナーをタップ!!
20200828	1100	20200831	000	90800	999999	0	0	1	1	523	150	0	4	0	0	7000	0	2500	0	500	0	0	0	敵の波動攻撃に強いキャラが揃う「波動バスターズ」！★おまけアップイベント開催中!!
[end]
