[start]
20180109	1100	20300101	0	60700	999999	0	0	0	1	0	0	0	0	10000	0	0	0	0	0	0	0	0	0	
20180101	0	20300101	0	80200	999999	0	0	2	3	33	30	0	0	0	0	7500	0	2000	0	500	0	0	0		23	30	0	0	0	0	7500	0	2000	0	500	0	0	0		0	30	0	0	0	0	7500	0	2000	0	500	0	0	0	
20180101	0	20300101	0	80200	999999	0	0	3	3	33	75	0	0	0	0	7500	0	2000	0	500	0	0	0		23	75	0	0	0	0	7500	0	2000	0	500	0	0	0		0	75	0	0	0	0	7500	0	2000	0	500	0	0	0	
20210426	1100	20300101	000	100400	999999	0	0	0	3	-1	0	0	0	0	0	0	0	0	0	0	0	0	0		-1	0	0	0	0	0	0	0	0	0	0	0	0	0		62	0	0	0	0	0	7400	0	2100	0	500	0	0	0	ちびネコ達が手に入る特別仕様のイベントガチャ！
20210316	1100	20300101	000	100400	999999	0	0	0	4	-1	0	0	0	0	0	0	0	0	0	0	0	0	0		-1	0	0	0	0	0	0	0	0	0	0	0	0	0		-1	0	0	0	0	0	0	0	0	0	0	0	0	0		63	0	300	0	0	0	5100	0	3500	0	1400	0	0	0	ネコビタンとXPが手に入る特別仕様ガチャ！
20211115	1100	20211227	2359	110000	999999	0	0	4	2	-1	0	0	0	0	0	0	0	0	0	0	0	0	0				16	0	0	0	1000	0	5000	0	3000	0	1000	1	0	0	【Q周年】はてなボックスで回せる限定ガチャ！★12月27日まで	このガチャをあと	回ガチャれば限定キャラクターが必ず出現！
20211206	1100	20211227	2359	110000	999999	0	0	4	2	-1	0	0	0	0	0	0	0	0	0	0	0	0	0				16	0	0	0	1000	0	4500	0	2500	0	2000	1	0	0	【Q周年】はてなボックスで回せる限定ガチャ！★12月27日まで	このガチャをあと	回ガチャれば限定キャラクターが必ず出現！
20211213	1100	20211227	1100	110000	999999	0	0	0	2	-1	0	0	0	0	0	0	0	0	0	0	0	0	0		3	0	300	0	400	0	2000	0	7000	0	600	0	0	0	高確率でマタタビが手に入るイベント限定特別ガチャ！
20211208	000	20300101	000	110100	999999	0	0	0	1	64	0	2300	0	10000	0	0	0	0	0	0	0	0	0	
20211126	1100	20300101	000	110000	999999	0	0	1	4	-1	0	0	0	0	0	0	0	0	0	0	0	0	0		-1	0	0	0	0	0	0	0	0	0	0	0	0	0		-1	0	0	0	0	0	0	0	0	0	0	0	0	0		674	0	0	0	0	0	0	0	0	0	9500	0	500	0	超激レア以上のキャラクターが必ず１体手に入る「レジェンドガチャ」！
20211126	1100	20300101	000	110000	999999	0	0	1	5	-1	0	0	0	0	0	0	0	0	0	0	0	0	0		-1	0	0	0	0	0	0	0	0	0	0	0	0	0		-1	0	0	0	0	0	0	0	0	0	0	0	0	0		-1	0	0	0	0	0	0	0	0	0	0	0	0	0		672	0	0	0	0	0	0	0	0	0	10000	0	0	0	超激レアのキャラクターが必ず１体手に入る「プラチナガチャ」！
20211217	1100	20211227	1100	110100	999999	0	0	1	2	-1	0	0	0	0	0	0	0	0	0	0	0	0	0		668	150	0	16384	0	0	7000	0	2500	0	500	0	0	0	一部クリスマス限定キャラクターの第3形態追加！★詳細はバナーをタップ!!	0	0
20211220	1100	20211227	2359	110100	999999	0	0	4	1	15	0	0	0	1000	0	4000	0	2000	0	3000	1	0	0	◀左右のボタンで【Q周年】イベントガチャに切り替え▶	このガチャをあと	回ガチャれば限定キャラクターが必ず出現！
20211220	1100	20211227	2359	110100	999999	0	0	4	2	-1	0	0	0	0	0	0	0	0	0	0	0	0	0				16	0	0	0	1000	0	4500	0	2500	0	2000	1	0	0	◀左右のボタンで【JRAコラボ】イベントガチャに切り替え▶	このガチャをあと	回ガチャれば限定キャラクターが必ず出現！
20211222	1100	20211224	1100	110100	999999	0	0	1	1	608	150	0	0	0	0	6970	0	2500	0	500	1	30	0	黒い敵と悪魔に強い新キャラクター「天草四郎」参戦！★詳細はバナーをタップ!!
20211222	1100	20211227	1100	110100	999999	0	0	1	2	-1	0	0	0	0	0	0	0	0	0	0	0	0	0		668	150	0	0	0	0	7000	0	2500	0	500	1	0	0	一部クリスマス限定キャラクターの第3形態追加！★11連で超激レア確定!!
20211224	1100	20211227	1100	110100	999999	0	0	1	1	677	150	0	0	0	0	6970	0	2500	0	500	1	30	0	浮いてる敵と悪魔に強い新キャラ「堕天神ルシファー」参戦！★詳細はバナーをタップ!!
20211224	1100	20300101	000	110100	999999	0	0	1	4	-1	0	0	0	0	0	0	0	0	0	0	0	0	0		-1	0	0	0	0	0	0	0	0	0	0	0	0	0		-1	0	0	0	0	0	0	0	0	0	0	0	0	0		686	0	0	0	0	0	0	0	0	0	9500	0	500	0	超激レア以上のキャラクターが必ず１体手に入る「レジェンドガチャ」！
20211224	1100	20300101	000	110100	999999	0	0	1	5	-1	0	0	0	0	0	0	0	0	0	0	0	0	0		-1	0	0	0	0	0	0	0	0	0	0	0	0	0		-1	0	0	0	0	0	0	0	0	0	0	0	0	0		-1	0	0	0	0	0	0	0	0	0	0	0	0	0		684	0	0	0	0	0	0	0	0	0	10000	0	0	0	超激レアのキャラクターが必ず１体手に入る「プラチナガチャ」！
20211227	1100	20220101	000	110100	999999	0	0	0	2	-1	0	0	0	0	0	0	0	0	0	0	0	0	0		5	0	0	2	500	0	7000	0	2000	0	500	0	0	0	高確率でキャッツアイが手に入るイベント限定特別ガチャ！
20220101	000	20220109	1100	110100	999999	0	0	0	2	-1	0	0	0	0	0	0	0	0	0	0	0	0	0		3	0	300	0	400	0	2000	0	7000	0	600	0	0	0	高確率でマタタビが手に入るイベント限定特別ガチャ！
20220109	1100	20220117	1100	110100	999999	0	0	0	2	-1	0	0	0	0	0	0	0	0	0	0	0	0	0		5	0	0	2	500	0	7000	0	2000	0	500	0	0	0	高確率でキャッツアイが手に入るイベント限定特別ガチャ！
20211227	1100	20220101	000	110100	999999	0	0	1	1	683	150	0	4216	0	0	6770	0	2500	0	700	0	30	0	季節キャラクターが一堂に集結!!★超激レア出現率アップの「超国王祭」!!
20211230	1100	20220101	000	110100	999999	0	0	1	2	-1	0	0	0	0	0	0	0	0	0	0	0	0	0		585	150	0	20600	0	0	6970	0	2500	0	500	0	30	0	異世界より召喚された愉快な美少女達！★詳細はバナーをタップ!!
20220101	000	20220104	1100	110100	999999	0	0	1	1	681	150	0	4216	0	0	6500	0	2500	0	1000	0	0	0	新キャラ「踊り子イズ」に加え、ちびネコヴァルキリーも登場！★超激出現率が最大アップ!
20220101	000	20300101	000	110100	999999	0	0	1	4	-1	0	0	0	0	0	0	0	0	0	0	0	0	0		-1	0	0	0	0	0	0	0	0	0	0	0	0	0		-1	0	0	0	0	0	0	0	0	0	0	0	0	0		687	0	0	0	0	0	0	0	0	0	9500	0	500	0	超激レア以上のキャラクターが必ず１体手に入る「レジェンドガチャ」！
20220101	000	20300101	000	110100	999999	0	0	1	5	-1	0	0	0	0	0	0	0	0	0	0	0	0	0		-1	0	0	0	0	0	0	0	0	0	0	0	0	0		-1	0	0	0	0	0	0	0	0	0	0	0	0	0		-1	0	0	0	0	0	0	0	0	0	0	0	0	0		685	0	0	0	0	0	0	0	0	0	10000	0	0	0	超激レアのキャラクターが必ず１体手に入る「プラチナガチャ」！
20220104	1100	20220111	1100	110100	999999	0	0	1	1	680	150	0	4216	0	0	6970	0	2500	0	500	0	30	0	期間限定キャラも登場する、特別仕様の新年ガチャ！★詳細はバナーをタップ!!
20220104	1100	20220106	1100	110100	999999	0	0	1	2	-1	0	0	0	0	0	0	0	0	0	0	0	0	0		659	150	0	20600	0	0	6970	0	2500	0	500	0	30	0	悪魔と天使に強い新キャラクター「舌切りすずめ」参戦！★詳細はバナーをタップ!!
20220106	1100	20220108	1100	110100	999999	0	0	1	2	-1	0	0	0	0	0	0	0	0	0	0	0	0	0		644	150	0	20600	0	0	6970	0	2500	0	500	0	30	0	ゾンビと悪魔に強い新キャラ「超竜戦機デス・トロイ」参戦！★詳細はバナーをタップ!!
[end]
