[start]
20180109	1100	20300101	0	60700	999999	0	0	0	1	0	0	0	0	10000	0	0	0	0	0	0	0	0	0	
20180101	0	20300101	0	80200	999999	0	0	2	3	33	30	0	0	0	0	7500	0	2000	0	500	0	0	0		23	30	0	0	0	0	7500	0	2000	0	500	0	0	0		0	30	0	0	0	0	7500	0	2000	0	500	0	0	0	
20180101	0	20300101	0	80200	999999	0	0	3	3	33	75	0	0	0	0	7500	0	2000	0	500	0	0	0		23	75	0	0	0	0	7500	0	2000	0	500	0	0	0		0	75	0	0	0	0	7500	0	2000	0	500	0	0	0	
20210426	1100	20300101	000	100400	999999	0	0	0	3	-1	0	0	0	0	0	0	0	0	0	0	0	0	0		-1	0	0	0	0	0	0	0	0	0	0	0	0	0		62	0	0	0	0	0	7400	0	2100	0	500	0	0	0	ちびネコ達が手に入る特別仕様のイベントガチャ！
20210316	1100	20300101	000	100400	999999	0	0	0	4	-1	0	0	0	0	0	0	0	0	0	0	0	0	0		-1	0	0	0	0	0	0	0	0	0	0	0	0	0		-1	0	0	0	0	0	0	0	0	0	0	0	0	0		63	0	300	0	0	0	5100	0	3500	0	1400	0	0	0	ネコビタンとXPが手に入る特別仕様ガチャ！
20211208	000	20300101	000	110100	999999	0	0	0	1	64	0	2300	0	10000	0	0	0	0	0	0	0	0	0	
20220509	1100	20220516	1100	110500	999999	0	0	0	2	-1	0	0	0	0	0	0	0	0	0	0	0	0	0		5	0	0	2	500	0	7000	0	2000	0	500	0	0	0	高確率でキャッツアイが手に入るイベント限定特別ガチャ！
20220501	1100	20300101	000	110500	999999	0	0	1	4	-1	0	0	0	0	0	0	0	0	0	0	0	0	0		-1	0	0	0	0	0	0	0	0	0	0	0	0	0		-1	0	0	0	0	0	0	0	0	0	0	0	0	0		730	0	0	0	0	0	0	0	0	0	9500	0	500	0	超激レア以上のキャラクターが必ず１体手に入る「レジェンドガチャ」！
20220501	1100	20300101	000	110500	999999	0	0	1	5	-1	0	0	0	0	0	0	0	0	0	0	0	0	0		-1	0	0	0	0	0	0	0	0	0	0	0	0	0		-1	0	0	0	0	0	0	0	0	0	0	0	0	0		-1	0	0	0	0	0	0	0	0	0	0	0	0	0		729	0	0	0	0	0	0	0	0	0	10000	0	0	0	超激レアのキャラクターが必ず１体手に入る「プラチナガチャ」！
20220509	1100	20220513	1100	110500	999999	0	0	1	1	726	150	0	0	0	0	6770	0	2500	0	700	0	30	0	季節キャラクターが一堂に集結!!★超激レア出現率アップの「超国王祭」!!
20220509	1100	20220511	1100	110500	999999	0	0	1	2	-1	0	0	0	0	0	0	0	0	0	0	0	0	0		708	150	0	16384	0	0	6970	0	2500	0	500	0	30	0	超生命体特効を持つ新キャラクター「服部半蔵」参戦！★詳細はバナーをタップ!!
20220511	1100	20220513	1100	110500	999999	0	0	1	2	-1	0	0	0	0	0	0	0	0	0	0	0	0	0		679	150	0	16384	0	0	6970	0	2500	0	500	0	30	0	浮いてる敵と悪魔に強いキャラ「堕天神ルシファー」参戦！★詳細はバナーをタップ!!
20220516	1100	20220523	1100	110500	999999	0	0	0	2	-1	0	0	0	0	0	0	0	0	0	0	0	0	0		3	0	300	0	400	0	2000	0	7000	0	600	0	0	0	高確率でマタタビが手に入るイベント限定特別ガチャ！
20220513	1100	20220516	1100	110500	999999	0	0	1	1	728	150	0	0	0	0	6500	0	2600	0	900	0	0	0	新キャラ「悲嘆の踊り子イズ」参戦！★超激レア出現率超アップの「極ネコ祭」開催中!!
20220516	1100	20220518	1100	110500	999999	0	0	1	1	658	150	0	0	0	0	6440	0	2500	0	1000	0	60	0	★超激・伝説レア出現率2倍!★にゃんこワールド最大級の仰天進化を遂げる古代の勇者達！
20220516	1100	20220518	1100	110500	999999	0	0	1	2	-1	0	0	0	0	0	0	0	0	0	0	0	0	0		694	150	0	0	0	0	6440	0	2500	0	1000	0	60	0	★超激・伝説レア出現率2倍!★邪魔する敵をやっつける！パワフルでキュートな電脳少女達！
20220516	1100	20220518	1100	110500	999999	0	0	1	3	-1	0	0	0	0	0	0	0	0	0	0	0	0	0		-1	0	0	0	0	0	0	0	0	0	0	0	0	0		644	150	0	0	0	0	6440	0	2500	0	1000	0	60	0	★超激・伝説レア出現率2倍!★ゾンビを蹴散らすにゃんこ軍団の超兵器！
20220518	1100	20220520	1100	110500	999999	0	0	1	1	629	150	0	0	0	0	6440	0	2500	0	1000	0	60	0	★超激・伝説レア出現率2倍!★バラエティ豊富な世界一即戦力になるにゃんこ達！
20220518	1100	20220520	1100	110500	999999	0	0	1	2	-1	0	0	0	0	0	0	0	0	0	0	0	0	0		662	150	0	0	0	0	6440	0	2500	0	1000	0	60	0	★超激・伝説レア出現率2倍!★正義と闇の力を併せ持つ、にゃんこ軍団の救世主達！
20220518	1100	20220520	1100	110500	999999	0	0	1	3	-1	0	0	0	0	0	0	0	0	0	0	0	0	0		-1	0	0	0	0	0	0	0	0	0	0	0	0	0		626	150	0	0	0	0	6440	0	2500	0	1000	0	60	0	★超激・伝説レア出現率2倍!★ねこなのか何なのか、謎に包まれたキモかわ生命体！
20220520	1100	20220522	1100	110500	999999	0	0	1	1	708	150	0	0	0	0	6440	0	2500	0	1000	0	60	0	★超激・伝説レア出現率2倍!★黒い敵相手に大暴れ！強力な効果を持つ戦国武将達！
20220520	1100	20220522	1100	110500	999999	0	0	1	2	-1	0	0	0	0	0	0	0	0	0	0	0	0	0		631	150	0	0	0	0	6440	0	2500	0	1000	0	60	0	★超激・伝説レア出現率2倍!★圧倒的な存在感を放つ、強力なドラゴン達を手に入れよう！
20220520	1100	20220522	1100	110500	999999	0	0	1	3	-1	0	0	0	0	0	0	0	0	0	0	0	0	0		-1	0	0	0	0	0	0	0	0	0	0	0	0	0		718	150	0	0	0	0	6440	0	2500	0	1000	0	60	0	★超激・伝説レア出現率2倍!★宇宙の果てからやって来た、個性的で愉快な精霊達！
20220522	1100	20220523	1100	110500	999999	0	0	1	1	679	150	0	0	0	0	6440	0	2500	0	1000	0	60	0	★超激・伝説レア出現率2倍!★にゃんこワールドの偉大なる神々、ここに集結！
20220522	1100	20220523	1100	110500	999999	0	0	1	2	-1	0	0	0	0	0	0	0	0	0	0	0	0	0		587	150	0	0	0	0	6440	0	2500	0	1000	0	60	0	★超激・伝説レア出現率2倍!★異世界より召喚された美少女達！★詳細はバナーをタップ!!
[end]
